2017-03-07 11:44:17	삭제	guswns1:[메티스]	[905892286]강철 마나의 지팡이
2017-03-07 11:44:17	삭제	guswns1:[메티스]	[905892285]강철 마나의 지팡이
2017-03-07 11:44:17	삭제	guswns1:[메티스]	[905892233]강철 마나의 지팡이
2017-03-07 11:44:17	삭제	guswns1:[메티스]	[905892284]강철 마나의 지팡이
2017-03-07 11:44:17	삭제	guswns1:[메티스]	[905892187]강철 마나의 지팡이
2017-03-07 11:44:17	삭제	guswns1:[메티스]	[905892292]강철 마나의 지팡이
2017-03-07 11:45:19	삭제	guswns1:[메티스]	[905892299]강철 마나의 지팡이
2017-03-07 11:45:36	삭제	guswns1:[메티스]	[905892301]강철 마나의 지팡이
2017-03-07 11:50:38	삭제	guswns1:[메티스]	[905892335]\aH수정결정체 지팡이
2017-03-07 11:50:38	삭제	guswns1:[메티스]	[905892334]고대인의 지혜
2017-03-07 11:50:38	삭제	guswns1:[메티스]	[905892330]마법사의 지팡이
2017-03-07 11:50:38	삭제	guswns1:[메티스]	[905892331]붉은 수정의 지팡이
2017-03-07 11:50:38	삭제	guswns1:[메티스]	[905892332]힘의 지팡이
2017-03-07 11:50:38	삭제	guswns1:[메티스]	[905892333]신관의 지팡이
2017-03-07 11:50:38	삭제	guswns1:[메티스]	[905892329]강철 마나의 지팡이
2017-03-07 11:50:38	삭제	guswns1:[메티스]	[905892328]마나의 지팡이
2017-03-07 11:50:38	삭제	guswns1:[메티스]	[905892327]마력의 지팡이
2017-03-07 11:50:38	삭제	guswns1:[메티스]	[905892326]바포메트의 지팡이
2017-03-07 11:50:38	삭제	guswns1:[메티스]	[905892319]라스타바드 스태프
2017-03-07 11:50:38	삭제	guswns1:[메티스]	[905892325]베레스의 지팡이
2017-03-07 11:50:38	삭제	guswns1:[메티스]	[905892315]라이아의 완드
2017-03-07 11:50:38	삭제	guswns1:[메티스]	[905892314]블랙 위자드의 스태프
2017-03-07 11:50:38	삭제	guswns1:[메티스]	[905892313]신관의 지팡이
2017-03-07 11:50:38	삭제	guswns1:[메티스]	[905892312]강철 마나의 지팡이
2017-03-07 11:50:38	삭제	guswns1:[메티스]	[905892311]강철 마나의 지팡이
2017-03-07 11:50:38	삭제	guswns1:[메티스]	[905892310]강철 마나의 지팡이
2017-03-07 11:50:38	삭제	guswns1:[메티스]	[905892309]강철 마나의 지팡이
2017-03-07 11:50:38	삭제	guswns1:[메티스]	[905892303]강철 마나의 지팡이
2017-03-07 11:50:38	삭제	guswns1:[메티스]	[905892317]수련자의 지팡이
2017-03-07 11:50:38	삭제	guswns1:[메티스]	[905892318]얼음 여왕의 지팡이
2017-03-07 18:35:27	버리기	leegyuhwa:[요정]	[905619910]안타라스의 숨결(1)
2017-03-07 18:35:29	버리기	leegyuhwa:[요정]	[905619942]안타라스의 숨결(1)
2017-03-07 18:35:29	줍기	leegyuhwa:[요정]	[905619910]안타라스의 숨결(2)
2017-03-07 18:35:38	버리기	leegyuhwa:[요정]	[905619944]안타라스의 숨결(1)
2017-03-07 18:35:38	버리기	leegyuhwa:[요정]	[905619948]안타라스의 숨결(1)
2017-03-07 18:35:38	버리기	leegyuhwa:[요정]	[905619947]안타라스의 숨결(1)
2017-03-07 18:35:38	버리기	leegyuhwa:[요정]	[905619946]안타라스의 숨결(1)
2017-03-07 18:35:38	버리기	leegyuhwa:[요정]	[905619945]안타라스의 숨결(1)
2017-03-07 18:35:38	버리기	leegyuhwa:[요정]	[905619949]안타라스의 숨결(1)
2017-03-07 18:35:38	버리기	leegyuhwa:[요정]	[905619950]안타라스의 숨결(1)
2017-03-07 18:35:38	버리기	leegyuhwa:[요정]	[905619953]안타라스의 숨결(1)
2017-03-07 18:35:41	버리기	leegyuhwa:[요정]	[905619954]안타라스의 숨결(1)
2017-03-07 18:35:41	버리기	leegyuhwa:[요정]	[905619958]안타라스의 숨결(1)
2017-03-07 18:35:41	버리기	leegyuhwa:[요정]	[905619964]안타라스의 숨결(1)
2017-03-07 18:35:41	버리기	leegyuhwa:[요정]	[905619957]안타라스의 숨결(1)
2017-03-07 18:35:41	버리기	leegyuhwa:[요정]	[905619963]안타라스의 숨결(1)
2017-03-07 18:35:41	버리기	leegyuhwa:[요정]	[905619960]안타라스의 숨결(1)
2017-03-07 18:35:41	버리기	leegyuhwa:[요정]	[905619956]안타라스의 숨결(1)
2017-03-07 18:35:41	버리기	leegyuhwa:[요정]	[905619955]안타라스의 숨결(1)
2017-03-07 18:35:44	버리기	leegyuhwa:[요정]	[905619943]안타라스의 숨결(3)
2017-03-07 18:35:46	버리기	leegyuhwa:[요정]	[905619959]안타라스의 숨결(1)
2017-03-07 18:35:47	줍기	leegyuhwa:[요정]	[905619944]안타라스의 숨결(9)
2017-03-07 18:35:47	줍기	leegyuhwa:[요정]	[905619954]안타라스의 숨결(11)
2017-03-07 18:41:31	삭제	leegyuhwa:[요정]	[905925659]+9복수의 칼날
2017-03-07 18:44:35	삭제	leegyuhwa:[요정]	[905615447]드래곤 슬레이어
2017-03-07 18:45:17	삭제	leegyuhwa:[요정]	[905613446]코인: 벨트(0)
2017-03-07 18:45:17	삭제	leegyuhwa:[요정]	[905613447]코인: 인형(0)
2017-03-07 18:45:17	삭제	leegyuhwa:[요정]	[905613448]코인: 각반(0)
2017-03-07 18:45:17	삭제	leegyuhwa:[요정]	[905613451]코인: 방패/가더(0)
2017-03-07 18:45:17	삭제	leegyuhwa:[요정]	[905613444]코인: 반지(2)
2017-03-07 18:45:17	삭제	leegyuhwa:[요정]	[905613440]코인: 장갑(0)
2017-03-07 18:45:17	삭제	leegyuhwa:[요정]	[905613443]코인: 귀걸이(0)
2017-03-07 18:45:17	삭제	leegyuhwa:[요정]	[905613442]코인: 목걸이(0)
2017-03-07 18:45:17	삭제	leegyuhwa:[요정]	[905613438]코인: 망토(0)
2017-03-07 18:45:17	삭제	leegyuhwa:[요정]	[905613439]코인: 갑옷(0)
2017-03-07 18:45:17	삭제	leegyuhwa:[요정]	[905613437]코인: 티셔츠(0)
2017-03-07 18:45:17	삭제	leegyuhwa:[요정]	[905613441]코인: 부츠(0)
2017-03-07 18:45:20	삭제	leegyuhwa:[요정]	[905613450]패키지 이동주문서(0)
2017-03-07 18:45:36	삭제	leegyuhwa:[요정]	[905619585]+6발라카스의 인내력
2017-03-07 18:46:09	삭제	leegyuhwa:[요정]	[905626474]드래곤의 고급 다이아몬드(0)
2017-03-07 18:46:11	삭제	leegyuhwa:[요정]	[905625433]드래곤의 다이아몬드(0)
2017-03-07 18:46:14	삭제	leegyuhwa:[요정]	[905622056]강화 속도향상 물약(99)
2017-03-07 18:46:16	삭제	leegyuhwa:[요정]	[905622057]엘븐 와퍼(48)
2017-03-07 18:46:52	삭제	leegyuhwa:[요정]	[905613435]코인: 무기(0)
2017-03-07 18:46:52	삭제	leegyuhwa:[요정]	[905613436]코인: 투구(0)
2017-03-07 18:46:52	삭제	leegyuhwa:[요정]	[905613124]초보자 가이드북
2017-03-07 18:48:46	삭제	leegyuhwa:[요정]	[905925699]\aH수정결정체 지팡이
2017-03-07 18:49:01	삭제	leegyuhwa:[요정]	[905925701]\aH수정결정체 지팡이
2017-03-07 18:49:15	삭제	leegyuhwa:[요정]	[905925703]\aH진명황의 집행검
2017-03-07 19:00:41	삭제	leegyuhwa:[요정]	[905925783]농축 집중의 물약(98)
2017-03-07 19:03:34	삭제	leegyuhwa:[요정]	[905925795]+10공명의 키링크
2017-03-07 19:03:57	삭제	leegyuhwa:[요정]	[905925797]+10나이트발드의 양손검
2017-03-07 19:20:07	삭제	leegyuhwa:[요정]	[905925993]+9커츠의 수호 휘장
2017-03-07 19:22:51	삭제	leegyuhwa:[요정]	[905926007]+9실프의 티셔츠
2017-03-07 19:29:46	삭제	leegyuhwa:[요정]	[905926027]+9신성한 요정족 판금 갑옷
2017-03-07 19:30:42	삭제	leegyuhwa:[요정]	[905926030]+9수련자의 견고한 부츠
2017-03-07 19:31:09	삭제	leegyuhwa:[요정]	[905926033]+10완력의 부츠
2017-03-07 19:31:09	삭제	leegyuhwa:[요정]	[905926032]+9완력의 부츠
2017-03-07 19:32:55	삭제	leegyuhwa:[요정]	[905926041]오우거의 벨트
2017-03-07 19:32:55	삭제	leegyuhwa:[요정]	[905926042]+9오우거의 벨트
2017-03-07 19:32:55	삭제	leegyuhwa:[요정]	[905926018]오우거 킹의 벨트
2017-03-07 19:34:27	삭제	leegyuhwa:[요정]	[905926047]완력의 반지
2017-03-07 19:37:56	삭제	leegyuhwa:[요정]	[905926082]할파스의 집념(9)
2017-03-07 19:37:56	삭제	leegyuhwa:[요정]	[905926059]다이아몬드(0)
2017-03-07 19:37:56	삭제	leegyuhwa:[요정]	[905926055]루비(0)
2017-03-07 19:37:56	삭제	leegyuhwa:[요정]	[905926075]에메랄드(0)
2017-03-07 19:39:51	버리기	leegyuhwa:[요정]	[905926029]+9격분의 장갑
2017-03-07 19:39:53	줍기	leegyuhwa:[요정]	[905926029]+9격분의 장갑
2017-03-07 19:39:54	버리기	leegyuhwa:[요정]	[905926114]변신 지배 반지
2017-03-07 19:39:54	줍기	leegyuhwa:[요정]	[905926114]변신 지배 반지
2017-03-07 19:39:58	버리기	leegyuhwa:[요정]	[905925768]\aH수정결정체 지팡이
2017-03-07 19:39:59	줍기	leegyuhwa:[요정]	[905925768]\aH수정결정체 지팡이
2017-03-07 19:40:06	버리기	leegyuhwa:[요정]	[905925781]+10커츠의 검
2017-03-07 19:40:07	줍기	leegyuhwa:[요정]	[905925781]+10커츠의 검
2017-03-07 19:48:34	삭제	leegyuhwa:[요정]	[905926148]회상의 촛불(0)
2017-03-07 20:36:38	줍기	leegyuhwa:[요정]	[905926785]속도향상 물약(1)
2017-03-07 21:47:16	버리기	leegyuhwa:[요정]	[905926114]변신 지배 반지
2017-03-07 21:47:17	줍기	leegyuhwa:[요정]	[905926114]변신 지배 반지
2017-03-07 23:49:54	버리기	leegyuhwa:[요정]	[905926114]변신 지배 반지
2017-03-07 23:49:55	줍기	leegyuhwa:[요정]	[905926114]변신 지배 반지
