2016-12-21 08:02:16	접속 캐릭=토스	계정=matis	IP=127.0.0.1
2016-12-21 16:18:04	접속 캐릭=토스	계정=matis	IP=127.0.0.1
2016-12-21 16:18:29	종료 캐릭=토스 계정=matis IP=127.0.0.1
2016-12-21 16:18:53	접속 캐릭=토스	계정=matis	IP=127.0.0.1
2016-12-21 16:24:41	접속 캐릭=토스	계정=matis	IP=127.0.0.1
2016-12-21 16:25:45	종료 캐릭=토스 계정=matis IP=127.0.0.1
2016-12-21 16:25:50	접속 캐릭=토스	계정=matis	IP=127.0.0.1
2016-12-21 16:27:07	종료 캐릭=토스 계정=matis IP=127.0.0.1
2016-12-21 16:27:11	접속 캐릭=토스	계정=matis	IP=127.0.0.1
2016-12-21 16:48:04	접속 캐릭=토스	계정=matis	IP=127.0.0.1
2016-12-21 16:52:37	접속 캐릭=토스	계정=matis	IP=127.0.0.1
2016-12-21 16:59:38	접속 캐릭=토스	계정=matis	IP=127.0.0.1
2016-12-21 17:02:39	접속 캐릭=토스	계정=matis	IP=127.0.0.1
2016-12-21 17:08:17	접속 캐릭=토스	계정=matis	IP=127.0.0.1
2016-12-21 17:08:33	종료 캐릭=토스 계정=matis IP=127.0.0.1
2016-12-21 17:08:38	접속 캐릭=토스	계정=matis	IP=127.0.0.1
2016-12-21 17:13:19	접속 캐릭=토스	계정=matis	IP=127.0.0.1
2016-12-21 17:14:44	종료 캐릭=토스 계정=matis IP=127.0.0.1
2016-12-21 17:15:16	접속 캐릭=토스	계정=matis	IP=127.0.0.1
2016-12-21 17:17:22	종료 캐릭=토스 계정=matis IP=127.0.0.1
2016-12-21 17:17:26	접속 캐릭=토스	계정=matis	IP=127.0.0.1
2016-12-21 17:21:57	종료 캐릭=토스 계정=matis IP=127.0.0.1
2016-12-21 17:26:00	접속 캐릭=토스	계정=matis	IP=127.0.0.1
2016-12-21 17:26:21	종료 캐릭=토스 계정=matis IP=127.0.0.1
2016-12-21 17:26:26	접속 캐릭=토스	계정=matis	IP=127.0.0.1
2016-12-21 17:27:39	종료 캐릭=토스 계정=matis IP=127.0.0.1
2016-12-21 17:27:43	접속 캐릭=토스	계정=matis	IP=127.0.0.1
2016-12-21 17:28:05	종료 캐릭=토스 계정=matis IP=127.0.0.1
2016-12-21 17:28:10	접속 캐릭=토스	계정=matis	IP=127.0.0.1
2016-12-21 17:29:12	종료 캐릭=토스 계정=matis IP=127.0.0.1
2016-12-21 17:29:17	접속 캐릭=토스	계정=matis	IP=127.0.0.1
2016-12-21 17:29:30	종료 캐릭=토스 계정=matis IP=127.0.0.1
2016-12-21 18:03:33	접속 캐릭=토스	계정=matis	IP=127.0.0.1
2016-12-21 18:06:47	종료 캐릭=토스 계정=matis IP=127.0.0.1
2016-12-21 18:07:04	접속 캐릭=토스	계정=matis	IP=127.0.0.1
2016-12-21 18:07:36	종료 캐릭=토스 계정=matis IP=127.0.0.1
2016-12-21 18:07:49	접속 캐릭=토스	계정=matis	IP=127.0.0.1
2016-12-21 18:08:47	종료 캐릭=토스 계정=matis IP=127.0.0.1
2016-12-21 18:09:01	접속 캐릭=토스	계정=matis	IP=127.0.0.1
2016-12-21 18:09:13	종료 캐릭=토스 계정=matis IP=127.0.0.1
2016-12-21 18:10:38	접속 캐릭=토스	계정=matis	IP=127.0.0.1
2016-12-21 18:11:20	종료 캐릭=토스 계정=matis IP=127.0.0.1
2016-12-21 18:11:36	접속 캐릭=토스	계정=matis	IP=127.0.0.1
2016-12-21 18:12:54	종료 캐릭=토스 계정=matis IP=127.0.0.1
2016-12-21 18:13:03	접속 캐릭=토스	계정=matis	IP=127.0.0.1
2016-12-21 18:13:11	종료 캐릭=토스 계정=matis IP=127.0.0.1
2016-12-21 18:13:47	접속 캐릭=토스	계정=matis	IP=127.0.0.1
2016-12-21 18:17:33	접속 캐릭=토스	계정=matis	IP=127.0.0.1
2016-12-21 18:31:48	접속 캐릭=응	계정=matis	IP=127.0.0.1
2016-12-21 19:10:09	종료 캐릭=응 계정=matis IP=127.0.0.1
2016-12-21 20:53:07	접속 캐릭=응	계정=matis	IP=127.0.0.1
2016-12-21 20:55:37	종료 캐릭=응 계정=matis IP=127.0.0.1
2016-12-21 20:55:42	접속 캐릭=응	계정=matis	IP=127.0.0.1
2016-12-21 20:55:52	종료 캐릭=응 계정=matis IP=127.0.0.1
2016-12-21 20:57:18	접속 캐릭=응	계정=matis	IP=127.0.0.1
2016-12-21 20:59:43	접속 캐릭=응	계정=matis	IP=127.0.0.1
2016-12-21 21:01:59	종료 캐릭=응 계정=matis IP=127.0.0.1
2016-12-21 21:02:03	접속 캐릭=응	계정=matis	IP=127.0.0.1
2016-12-21 21:04:06	종료 캐릭=응 계정=matis IP=127.0.0.1
2016-12-21 21:08:47	접속 캐릭=응	계정=matis	IP=127.0.0.1
2016-12-21 21:09:19	종료 캐릭=응 계정=matis IP=127.0.0.1
2016-12-21 21:09:24	접속 캐릭=응	계정=matis	IP=127.0.0.1
2016-12-21 21:09:44	종료 캐릭=응 계정=matis IP=127.0.0.1
2016-12-21 21:09:49	접속 캐릭=응	계정=matis	IP=127.0.0.1
2016-12-21 21:10:09	종료 캐릭=응 계정=matis IP=127.0.0.1
2016-12-21 21:10:13	접속 캐릭=응	계정=matis	IP=127.0.0.1
2016-12-21 21:11:09	종료 캐릭=응 계정=matis IP=127.0.0.1
2016-12-21 21:11:13	접속 캐릭=응	계정=matis	IP=127.0.0.1
2016-12-21 21:11:26	종료 캐릭=응 계정=matis IP=127.0.0.1
2016-12-21 21:11:35	접속 캐릭=응	계정=matis	IP=127.0.0.1
2016-12-21 21:14:47	종료 캐릭=응 계정=matis IP=127.0.0.1
2016-12-21 21:18:48	접속 캐릭=응	계정=matis	IP=127.0.0.1
2016-12-21 21:20:23	종료 캐릭=응 계정=matis IP=127.0.0.1
2016-12-21 21:20:28	접속 캐릭=응	계정=matis	IP=127.0.0.1
2016-12-21 21:21:03	종료 캐릭=응 계정=matis IP=127.0.0.1
2016-12-21 21:21:08	접속 캐릭=응	계정=matis	IP=127.0.0.1
2016-12-21 21:24:18	접속 캐릭=멧	계정=matis	IP=127.0.0.1
2016-12-21 21:24:48	종료 캐릭=멧 계정=matis IP=127.0.0.1
2016-12-21 21:24:52	접속 캐릭=멧	계정=matis	IP=127.0.0.1
2016-12-21 21:25:24	종료 캐릭=멧 계정=matis IP=127.0.0.1
2016-12-21 21:26:50	접속 캐릭=응	계정=matis	IP=127.0.0.1
2016-12-21 21:27:40	종료 캐릭=응 계정=matis IP=127.0.0.1
