2016-12-15 05:15:43	삭제	matis:[응]	[297115884]+1000론드의 이도류
2016-12-15 05:38:26	삭제	matis:[응]	[297567682]수련자의 도끼
2016-12-15 05:38:26	삭제	matis:[응]	[297599739]수련자의 도끼
2016-12-15 05:38:36	삭제	matis:[응]	[297599747]수련자의 도끼
