2016-10-02 00:16:29	종료 캐릭=용기사 계정=wjsdlf IP=121.147.218.65
2016-10-02 00:33:11	종료 캐릭=미소피아 계정=shs544 IP=220.77.252.100
2016-10-02 02:22:18	종료 캐릭=메티스 계정=xotqj11 IP=192.168.0.1
2016-10-02 03:19:56	접속 캐릭=메티스	계정=xotqj11	IP=192.168.0.1
2016-10-02 03:31:02	접속 캐릭=메티스	계정=xotqj11	IP=192.168.0.1
2016-10-02 03:36:17	종료 캐릭=메티스 계정=xotqj11 IP=192.168.0.1
2016-10-02 03:36:22	접속 캐릭=메티스	계정=xotqj11	IP=192.168.0.1
2016-10-02 03:37:05	종료 캐릭=메티스 계정=xotqj11 IP=192.168.0.1
2016-10-02 03:38:05	접속 캐릭=메티스	계정=xotqj11	IP=192.168.0.1
2016-10-02 03:47:11	접속 캐릭=메티스	계정=xotqj11	IP=192.168.0.1
2016-10-02 04:01:06	접속 캐릭=메티스	계정=xotqj11	IP=192.168.0.1
2016-10-02 04:03:44	접속 캐릭=메티스	계정=xotqj11	IP=192.168.0.1
2016-10-02 04:10:05	종료 캐릭=메티스 계정=xotqj11 IP=192.168.0.1
2016-10-02 04:11:44	접속 캐릭=메티스	계정=xotqj11	IP=192.168.0.1
2016-10-02 04:16:46	접속 캐릭=메티스	계정=xotqj11	IP=192.168.0.1
2016-10-02 04:32:18	종료 캐릭=메티스 계정=xotqj11 IP=192.168.0.1
2016-10-02 04:33:29	접속 캐릭=메티스	계정=xotqj11	IP=192.168.0.1
2016-10-02 05:03:13	종료 캐릭=메티스 계정=xotqj11 IP=192.168.0.1
2016-10-02 05:03:17	접속 캐릭=메티스	계정=xotqj11	IP=192.168.0.1
2016-10-02 05:04:03	종료 캐릭=메티스 계정=xotqj11 IP=192.168.0.1
2016-10-02 05:04:07	접속 캐릭=메티스	계정=xotqj11	IP=192.168.0.1
2016-10-02 05:04:50	종료 캐릭=메티스 계정=xotqj11 IP=192.168.0.1
2016-10-02 05:04:55	접속 캐릭=메티스	계정=xotqj11	IP=192.168.0.1
2016-10-02 07:26:52	접속 캐릭=그러나	계정=thsekaql123	IP=218.236.45.215
2016-10-02 07:27:05	종료 캐릭=그러나 계정=thsekaql123 IP=218.236.45.215
2016-10-02 07:27:17	접속 캐릭=그러나	계정=thsekaql123	IP=218.236.45.215
2016-10-02 07:27:48	종료 캐릭=그러나 계정=thsekaql123 IP=218.236.45.215
2016-10-02 07:27:50	접속 캐릭=경험치	계정=thsekaql123	IP=218.236.45.215
2016-10-02 07:28:04	종료 캐릭=경험치 계정=thsekaql123 IP=218.236.45.215
2016-10-02 07:28:06	접속 캐릭=그러나	계정=thsekaql123	IP=218.236.45.215
2016-10-02 07:30:28	종료 캐릭=그러나 계정=thsekaql123 IP=218.236.45.215
2016-10-02 07:30:31	접속 캐릭=경험치	계정=thsekaql123	IP=218.236.45.215
2016-10-02 07:41:14	종료 캐릭=경험치 계정=thsekaql123 IP=218.236.45.215
2016-10-02 07:41:17	접속 캐릭=그러나	계정=thsekaql123	IP=218.236.45.215
2016-10-02 07:43:31	종료 캐릭=그러나 계정=thsekaql123 IP=218.236.45.215
2016-10-02 17:03:36	접속 캐릭=메티스	계정=xotqj11	IP=192.168.0.1
2016-10-02 20:47:17	접속 캐릭=관우	계정=minwok2824	IP=1.242.212.205
2016-10-02 20:47:18	종료 캐릭=관우 계정=minwok2824 IP=1.242.212.205
2016-10-02 20:47:45	접속 캐릭=관우	계정=minwok2824	IP=1.242.212.205
2016-10-02 20:47:46	종료 캐릭=관우 계정=minwok2824 IP=1.242.212.205
2016-10-02 21:49:34	종료 캐릭=메티스 계정=xotqj11 IP=192.168.0.1
2016-10-02 21:49:43	접속 캐릭=지지지지	계정=xotqj11	IP=192.168.0.1
2016-10-02 21:59:03	접속 캐릭=메티스	계정=xotqj11	IP=192.168.0.1
2016-10-02 22:05:36	종료 캐릭=메티스 계정=xotqj11 IP=192.168.0.1
2016-10-02 22:05:38	접속 캐릭=지지지지	계정=xotqj11	IP=192.168.0.1
2016-10-02 22:14:15	종료 캐릭=지지지지 계정=xotqj11 IP=192.168.0.1
2016-10-02 22:14:17	접속 캐릭=메티스	계정=xotqj11	IP=192.168.0.1
2016-10-02 22:27:23	접속 캐릭=꼬미	계정=kokoa1	IP=58.236.41.26
2016-10-02 22:27:25	종료 캐릭=꼬미 계정=kokoa1 IP=58.236.41.26
2016-10-02 22:29:05	접속 캐릭=꼬미	계정=kokoa1	IP=58.236.41.26
2016-10-02 22:29:10	종료 캐릭=꼬미 계정=kokoa1 IP=58.236.41.26
2016-10-02 22:34:24	종료 캐릭=메티스 계정=xotqj11 IP=192.168.0.1
2016-10-02 22:35:21	접속 캐릭=메티스	계정=xotqj11	IP=192.168.0.1
2016-10-02 22:36:26	종료 캐릭=메티스 계정=xotqj11 IP=192.168.0.1
2016-10-02 22:37:03	접속 캐릭=메티스	계정=xotqj11	IP=192.168.0.1
2016-10-02 23:21:00	종료 캐릭=메티스 계정=xotqj11 IP=192.168.0.1
2016-10-02 23:23:50	접속 캐릭=메티스	계정=xotqj11	IP=192.168.0.1
2016-10-02 23:29:53	종료 캐릭=메티스 계정=xotqj11 IP=192.168.0.1
2016-10-02 23:31:00	접속 캐릭=메티스	계정=xotqj11	IP=192.168.0.1
2016-10-02 23:32:57	종료 캐릭=메티스 계정=xotqj11 IP=192.168.0.1
2016-10-02 23:34:27	접속 캐릭=저승사자	계정=minwok2824	IP=1.242.212.205
2016-10-02 23:34:27	종료 캐릭=저승사자 계정=minwok2824 IP=1.242.212.205
2016-10-02 23:40:08	접속 캐릭=손담비	계정=xotqj11	IP=192.168.0.1
2016-10-02 23:42:14	종료 캐릭=손담비 계정=xotqj11 IP=192.168.0.1
2016-10-02 23:42:28	접속 캐릭=메티스	계정=xotqj11	IP=192.168.0.1
2016-10-02 23:43:08	종료 캐릭=메티스 계정=xotqj11 IP=192.168.0.1
2016-10-02 23:44:10	접속 캐릭=메티스	계정=xotqj11	IP=192.168.0.1
2016-10-02 23:50:43	접속 캐릭=라이트발드	계정=thsekaql123	IP=218.236.45.215
2016-10-02 23:50:43	종료 캐릭=라이트발드 계정=thsekaql123 IP=218.236.45.215
2016-10-02 23:52:47	접속 캐릭=라이트발드	계정=thsekaql123	IP=218.236.45.215
2016-10-02 23:55:14	종료 캐릭=메티스 계정=xotqj11 IP=192.168.0.1
2016-10-02 23:55:35	접속 캐릭=룡기사	계정=xotqj11	IP=192.168.0.1
2016-10-02 23:56:46	종료 캐릭=룡기사 계정=xotqj11 IP=192.168.0.1
2016-10-02 23:57:16	접속 캐릭=손담비	계정=xotqj11	IP=192.168.0.1
2016-10-02 23:58:49	접속 캐릭=낭만	계정=shs544	IP=59.9.58.22
