2017-03-26 23:59:29	jms3206:[토시오]	성공	[905774481]+3기백의 반지
2017-03-26 23:59:29	kobongsu:[데스나이트]	성공	[905852980]+2룸티스의붉은빛귀걸이
2017-03-26 23:59:29	kobongsu:[데스나이트]	성공	[905852987]+2룸티스의붉은빛귀걸이
2017-03-26 23:59:30	kobongsu:[데스나이트]	성공	[905852992]+2룸티스의붉은빛귀걸이
2017-03-26 23:59:30	jms3206:[토시오]	성공	[905774481]+2기백의 반지
2017-03-26 23:59:30	kobongsu:[데스나이트]	성공	[905852998]+2룸티스의붉은빛귀걸이
2017-03-26 23:59:31	kobongsu:[데스나이트]	성공	[905853006]+2룸티스의붉은빛귀걸이
2017-03-26 23:59:31	jms3206:[토시오]	성공	[905774481]+3기백의 반지
2017-03-26 23:59:31	kobongsu:[데스나이트]	성공	[905853008]+2룸티스의붉은빛귀걸이
2017-03-26 23:59:31	kobongsu:[데스나이트]	성공	[905853011]+2룸티스의붉은빛귀걸이
2017-03-26 23:59:32	jms3206:[토시오]	성공	[905774481]+2기백의 반지
2017-03-26 23:59:33	kobongsu:[데스나이트]	성공	[905853013]+2룸티스의붉은빛귀걸이
2017-03-26 23:59:33	kobongsu:[데스나이트]	성공	[905853020]+2룸티스의붉은빛귀걸이
2017-03-26 23:59:33	jms3206:[토시오]	성공	[905774481]+3기백의 반지
2017-03-26 23:59:33	kobongsu:[데스나이트]	성공	[905853022]+2룸티스의붉은빛귀걸이
2017-03-26 23:59:34	kobongsu:[데스나이트]	성공	[905853025]+2룸티스의붉은빛귀걸이
2017-03-26 23:59:34	jms3206:[토시오]	성공	[905774481]+2기백의 반지
2017-03-26 23:59:35	jms3206:[토시오]	성공	[905774481]+3기백의 반지
2017-03-26 23:59:35	kobongsu:[데스나이트]	성공	[905853032]+2룸티스의붉은빛귀걸이
2017-03-26 23:59:36	kobongsu:[데스나이트]	성공	[905853038]+2룸티스의붉은빛귀걸이
2017-03-26 23:59:36	kobongsu:[데스나이트]	성공	[905853044]+2룸티스의붉은빛귀걸이
2017-03-26 23:59:36	jms3206:[토시오]	성공	[905774481]+2기백의 반지
2017-03-26 23:59:37	kobongsu:[데스나이트]	성공	[905853048]+2룸티스의붉은빛귀걸이
2017-03-26 23:59:37	jms3206:[토시오]	성공	[905774481]+3기백의 반지
2017-03-26 23:59:39	jms3206:[토시오]	성공	[905774481]+2기백의 반지
2017-03-26 23:59:39	kobongsu:[데스나이트]	성공	[905853051]+2룸티스의붉은빛귀걸이
2017-03-26 23:59:39	kobongsu:[데스나이트]	성공	[905853054]+2룸티스의붉은빛귀걸이
2017-03-26 23:59:40	kobongsu:[데스나이트]	성공	[905853057]+2룸티스의붉은빛귀걸이
2017-03-26 23:59:40	jms3206:[토시오]	성공	[905774481]+3기백의 반지
2017-03-26 23:59:40	kobongsu:[데스나이트]	성공	[905853068]+2룸티스의붉은빛귀걸이
2017-03-26 23:59:41	kobongsu:[데스나이트]	성공	[905853073]+2룸티스의붉은빛귀걸이
2017-03-26 23:59:41	jms3206:[토시오]	성공	[905774481]+4기백의 반지
2017-03-26 23:59:41	kobongsu:[데스나이트]	성공	[905853077]+2룸티스의붉은빛귀걸이
2017-03-26 23:59:42	kobongsu:[데스나이트]	성공	[905853082]+2룸티스의붉은빛귀걸이
2017-03-26 23:59:42	jms3206:[토시오]	성공	[905774481]+3기백의 반지
2017-03-26 23:59:42	kobongsu:[데스나이트]	성공	[905853086]+2룸티스의붉은빛귀걸이
2017-03-26 23:59:43	jms3206:[토시오]	성공	[905774481]+2기백의 반지
2017-03-26 23:59:44	jms3206:[토시오]	성공	[905774481]+3기백의 반지
2017-03-26 23:59:45	jms3206:[토시오]	성공	[905774481]+2기백의 반지
2017-03-26 23:59:46	jms3206:[토시오]	성공	[905774481]+3기백의 반지
2017-03-26 23:59:47	kobongsu:[데스나이트]	성공	[905853090]+2룸티스의붉은빛귀걸이
2017-03-26 23:59:47	kobongsu:[데스나이트]	성공	[905853098]+2룸티스의붉은빛귀걸이
2017-03-26 23:59:47	jms3206:[토시오]	성공	[905774481]+2기백의 반지
2017-03-26 23:59:48	kobongsu:[데스나이트]	성공	[905853109]+2룸티스의붉은빛귀걸이
2017-03-26 23:59:48	kobongsu:[데스나이트]	성공	[905853118]+2룸티스의붉은빛귀걸이
2017-03-26 23:59:49	jms3206:[토시오]	성공	[905774481]+3기백의 반지
2017-03-26 23:59:50	jms3206:[토시오]	성공	[905774481]+4기백의 반지
2017-03-26 23:59:50	kobongsu:[데스나이트]	성공	[905853121]+2룸티스의붉은빛귀걸이
2017-03-26 23:59:50	kobongsu:[데스나이트]	성공	[905853126]+2룸티스의붉은빛귀걸이
2017-03-26 23:59:51	jms3206:[토시오]	성공	[905774481]+5기백의 반지
2017-03-26 23:59:51	kobongsu:[데스나이트]	성공	[905853131]+2룸티스의붉은빛귀걸이
2017-03-26 23:59:51	kobongsu:[데스나이트]	성공	[905853137]+2룸티스의붉은빛귀걸이
2017-03-26 23:59:52	kobongsu:[데스나이트]	성공	[905853139]+2룸티스의붉은빛귀걸이
2017-03-26 23:59:52	jms3206:[토시오]	성공	[905774481]+4기백의 반지
2017-03-26 23:59:52	kobongsu:[데스나이트]	성공	[905853142]+2룸티스의붉은빛귀걸이
2017-03-26 23:59:53	kobongsu:[데스나이트]	성공	[905853146]+2룸티스의붉은빛귀걸이
2017-03-26 23:59:53	kobongsu:[데스나이트]	성공	[905853156]+2룸티스의붉은빛귀걸이
2017-03-26 23:59:53	jms3206:[토시오]	성공	[905775225]+4기백의 반지
2017-03-26 23:59:54	jms3206:[토시오]	성공	[905775225]+5기백의 반지
2017-03-26 23:59:54	kobongsu:[데스나이트]	성공	[905853158]+2룸티스의붉은빛귀걸이
2017-03-26 23:59:55	kobongsu:[데스나이트]	성공	[905853162]+2룸티스의붉은빛귀걸이
2017-03-26 23:59:55	kobongsu:[데스나이트]	성공	[905853167]+2룸티스의붉은빛귀걸이
2017-03-26 23:59:55	jms3206:[토시오]	성공	[905774481]+3기백의 반지
2017-03-26 23:59:55	kobongsu:[데스나이트]	성공	[905853175]+2룸티스의붉은빛귀걸이
2017-03-26 23:59:57	jms3206:[토시오]	성공	[905774481]+2기백의 반지
2017-03-26 23:59:57	kobongsu:[데스나이트]	성공	[905853178]+2룸티스의붉은빛귀걸이
2017-03-26 23:59:57	kobongsu:[데스나이트]	성공	[905853182]+2룸티스의붉은빛귀걸이
2017-03-26 23:59:57	kobongsu:[데스나이트]	성공	[905853186]+2룸티스의붉은빛귀걸이
2017-03-26 23:59:58	jms3206:[토시오]	성공	[905775225]+4기백의 반지
2017-03-26 23:59:59	jms3206:[토시오]	성공	[905775225]+3기백의 반지
2017-03-27 00:00:00	jms3206:[토시오]	성공	[905774481]+3기백의 반지
2017-03-27 00:00:01	jms3206:[토시오]	성공	[905775225]+2기백의 반지
2017-03-27 00:00:02	jms3206:[토시오]	성공	[905775225]+3기백의 반지
2017-03-27 00:00:02	kobongsu:[데스나이트]	성공	[905852936]+3룸티스의붉은빛귀걸이
2017-03-27 00:00:03	kobongsu:[데스나이트]	성공	[905852945]+3룸티스의붉은빛귀걸이
2017-03-27 00:00:03	jms3206:[토시오]	성공	[905774481]+2기백의 반지
2017-03-27 00:00:04	kobongsu:[데스나이트]	성공	[905852940]+3룸티스의붉은빛귀걸이
2017-03-27 00:00:04	jms3206:[토시오]	성공	[905775225]+4기백의 반지
2017-03-27 00:00:05	kobongsu:[데스나이트]	실패	[905852954]+2룸티스의붉은빛귀걸이
2017-03-27 00:00:05	kobongsu:[데스나이트]	성공	[905852967]+3룸티스의붉은빛귀걸이
2017-03-27 00:00:05	jms3206:[토시오]	성공	[905774481]+1기백의 반지
2017-03-27 00:00:06	kobongsu:[데스나이트]	성공	[905852959]+3룸티스의붉은빛귀걸이
2017-03-27 00:00:06	jms3206:[토시오]	성공	[905775225]+5기백의 반지
2017-03-27 00:00:07	kobongsu:[데스나이트]	실패	[905852972]+2룸티스의붉은빛귀걸이
2017-03-27 00:00:07	jms3206:[토시오]	성공	[905774481]+2기백의 반지
2017-03-27 00:00:08	kobongsu:[데스나이트]	성공	[905852980]+3룸티스의붉은빛귀걸이
2017-03-27 00:00:08	kobongsu:[데스나이트]	실패	[905852975]+2룸티스의붉은빛귀걸이
2017-03-27 00:00:08	jms3206:[토시오]	성공	[905774481]+3기백의 반지
2017-03-27 00:00:09	jms3206:[토시오]	성공	[905774481]+2기백의 반지
2017-03-27 00:00:10	kobongsu:[데스나이트]	성공	[905852987]+3룸티스의붉은빛귀걸이
2017-03-27 00:00:11	jms3206:[토시오]	성공	[905774481]+3기백의 반지
2017-03-27 00:00:12	jms3206:[토시오]	성공	[905774481]+4기백의 반지
2017-03-27 00:00:12	kobongsu:[데스나이트]	성공	[905852992]+3룸티스의붉은빛귀걸이
2017-03-27 00:00:12	kobongsu:[데스나이트]	성공	[905852998]+3룸티스의붉은빛귀걸이
2017-03-27 00:00:13	kobongsu:[데스나이트]	성공	[905853006]+3룸티스의붉은빛귀걸이
2017-03-27 00:00:13	jms3206:[토시오]	성공	[905774481]+3기백의 반지
2017-03-27 00:00:13	kobongsu:[데스나이트]	성공	[905853008]+3룸티스의붉은빛귀걸이
2017-03-27 00:00:14	jms3206:[토시오]	성공	[905774481]+2기백의 반지
2017-03-27 00:00:14	kobongsu:[데스나이트]	성공	[905853011]+3룸티스의붉은빛귀걸이
2017-03-27 00:00:14	kobongsu:[데스나이트]	성공	[905853013]+3룸티스의붉은빛귀걸이
2017-03-27 00:00:15	kobongsu:[데스나이트]	실패	[905853020]+2룸티스의붉은빛귀걸이
2017-03-27 00:00:15	jms3206:[토시오]	성공	[905774481]+3기백의 반지
2017-03-27 00:00:15	kobongsu:[데스나이트]	성공	[905853025]+3룸티스의붉은빛귀걸이
2017-03-27 00:00:16	jms3206:[토시오]	성공	[905774481]+4기백의 반지
2017-03-27 00:00:16	kobongsu:[데스나이트]	성공	[905853022]+3룸티스의붉은빛귀걸이
2017-03-27 00:00:17	jms3206:[토시오]	성공	[905774481]+5기백의 반지
2017-03-27 00:00:18	jms3206:[토시오]	성공	[905774481]+6기백의 반지
2017-03-27 00:00:19	kobongsu:[데스나이트]	성공	[905853032]+3룸티스의붉은빛귀걸이
2017-03-27 00:00:19	jms3206:[토시오]	성공	[905775225]+4기백의 반지
2017-03-27 00:00:19	kobongsu:[데스나이트]	성공	[905853038]+3룸티스의붉은빛귀걸이
2017-03-27 00:00:20	kobongsu:[데스나이트]	성공	[905853044]+3룸티스의붉은빛귀걸이
2017-03-27 00:00:20	kobongsu:[데스나이트]	성공	[905853048]+3룸티스의붉은빛귀걸이
2017-03-27 00:00:20	jms3206:[토시오]	성공	[905775225]+3기백의 반지
2017-03-27 00:00:22	jms3206:[토시오]	성공	[905775225]+4기백의 반지
2017-03-27 00:00:22	kobongsu:[데스나이트]	성공	[905853051]+3룸티스의붉은빛귀걸이
2017-03-27 00:00:22	kobongsu:[데스나이트]	성공	[905853054]+3룸티스의붉은빛귀걸이
2017-03-27 00:00:22	kobongsu:[데스나이트]	성공	[905853057]+3룸티스의붉은빛귀걸이
2017-03-27 00:00:23	jms3206:[토시오]	성공	[905775225]+5기백의 반지
2017-03-27 00:00:23	kobongsu:[데스나이트]	성공	[905853068]+3룸티스의붉은빛귀걸이
2017-03-27 00:00:24	kobongsu:[데스나이트]	성공	[905853073]+3룸티스의붉은빛귀걸이
2017-03-27 00:00:24	jms3206:[토시오]	성공	[905775225]+4기백의 반지
2017-03-27 00:00:24	kobongsu:[데스나이트]	성공	[905853077]+3룸티스의붉은빛귀걸이
2017-03-27 00:00:25	kobongsu:[데스나이트]	실패	[905853082]+2룸티스의붉은빛귀걸이
2017-03-27 00:00:25	jms3206:[토시오]	성공	[905775225]+5기백의 반지
2017-03-27 00:00:26	kobongsu:[데스나이트]	실패	[905853086]+2룸티스의붉은빛귀걸이
2017-03-27 00:00:26	jms3206:[토시오]	성공	[905775225]+4기백의 반지
2017-03-27 00:00:27	kobongsu:[데스나이트]	실패	[905853090]+2룸티스의붉은빛귀걸이
2017-03-27 00:00:27	jms3206:[토시오]	성공	[905775225]+3기백의 반지
2017-03-27 00:00:27	kobongsu:[데스나이트]	성공	[905853098]+3룸티스의붉은빛귀걸이
2017-03-27 00:00:28	kobongsu:[데스나이트]	실패	[905853109]+2룸티스의붉은빛귀걸이
2017-03-27 00:00:29	jms3206:[토시오]	성공	[905775225]+4기백의 반지
2017-03-27 00:00:29	kobongsu:[데스나이트]	성공	[905853118]+3룸티스의붉은빛귀걸이
2017-03-27 00:00:30	jms3206:[토시오]	성공	[905775225]+3기백의 반지
2017-03-27 00:00:30	kobongsu:[데스나이트]	성공	[905853121]+3룸티스의붉은빛귀걸이
2017-03-27 00:00:31	kobongsu:[데스나이트]	성공	[905853126]+3룸티스의붉은빛귀걸이
2017-03-27 00:00:31	jms3206:[토시오]	성공	[905775225]+4기백의 반지
2017-03-27 00:00:31	kobongsu:[데스나이트]	성공	[905853131]+3룸티스의붉은빛귀걸이
2017-03-27 00:00:32	kobongsu:[데스나이트]	성공	[905853137]+3룸티스의붉은빛귀걸이
2017-03-27 00:00:32	jms3206:[토시오]	성공	[905775225]+3기백의 반지
2017-03-27 00:00:33	kobongsu:[데스나이트]	성공	[905853139]+3룸티스의붉은빛귀걸이
2017-03-27 00:00:33	jms3206:[토시오]	성공	[905775225]+4기백의 반지
2017-03-27 00:00:33	kobongsu:[데스나이트]	성공	[905853142]+3룸티스의붉은빛귀걸이
2017-03-27 00:00:34	kobongsu:[데스나이트]	성공	[905853146]+3룸티스의붉은빛귀걸이
2017-03-27 00:00:34	jms3206:[토시오]	성공	[905775225]+5기백의 반지
2017-03-27 00:00:34	kobongsu:[데스나이트]	성공	[905853156]+3룸티스의붉은빛귀걸이
2017-03-27 00:00:35	kobongsu:[데스나이트]	성공	[905853158]+3룸티스의붉은빛귀걸이
2017-03-27 00:00:35	jms3206:[토시오]	성공	[905775225]+4기백의 반지
2017-03-27 00:00:35	kobongsu:[데스나이트]	성공	[905853162]+3룸티스의붉은빛귀걸이
2017-03-27 00:00:36	kobongsu:[데스나이트]	성공	[905853167]+3룸티스의붉은빛귀걸이
2017-03-27 00:00:36	jms3206:[토시오]	성공	[905775225]+5기백의 반지
2017-03-27 00:00:36	kobongsu:[데스나이트]	성공	[905853175]+3룸티스의붉은빛귀걸이
2017-03-27 00:00:37	kobongsu:[데스나이트]	성공	[905853178]+3룸티스의붉은빛귀걸이
2017-03-27 00:00:37	jms3206:[토시오]	성공	[905775225]+4기백의 반지
2017-03-27 00:00:38	kobongsu:[데스나이트]	실패	[905853182]+2룸티스의붉은빛귀걸이
2017-03-27 00:00:38	kobongsu:[데스나이트]	성공	[905853186]+3룸티스의붉은빛귀걸이
2017-03-27 00:00:39	jms3206:[토시오]	성공	[905775225]+3기백의 반지
2017-03-27 00:00:40	jms3206:[토시오]	성공	[905775225]+4기백의 반지
2017-03-27 00:00:41	kobongsu:[데스나이트]	성공	[905852936]+4룸티스의붉은빛귀걸이
2017-03-27 00:00:41	jms3206:[토시오]	성공	[905775225]+3기백의 반지
2017-03-27 00:00:41	kobongsu:[데스나이트]	실패	[905852940]+3룸티스의붉은빛귀걸이
2017-03-27 00:00:42	jms3206:[토시오]	성공	[905775225]+2기백의 반지
2017-03-27 00:00:42	kobongsu:[데스나이트]	실패	[905852945]+3룸티스의붉은빛귀걸이
2017-03-27 00:00:42	kobongsu:[데스나이트]	실패	[905852959]+3룸티스의붉은빛귀걸이
2017-03-27 00:00:43	jms3206:[토시오]	성공	[905775225]+3기백의 반지
2017-03-27 00:00:43	kobongsu:[데스나이트]	실패	[905852967]+3룸티스의붉은빛귀걸이
2017-03-27 00:00:44	kobongsu:[데스나이트]	실패	[905852980]+3룸티스의붉은빛귀걸이
2017-03-27 00:00:44	kobongsu:[데스나이트]	성공	[905852987]+4룸티스의붉은빛귀걸이
2017-03-27 00:00:45	kobongsu:[데스나이트]	실패	[905852992]+3룸티스의붉은빛귀걸이
2017-03-27 00:00:46	kobongsu:[데스나이트]	성공	[905852998]+4룸티스의붉은빛귀걸이
2017-03-27 00:00:47	kobongsu:[데스나이트]	실패	[905853006]+3룸티스의붉은빛귀걸이
2017-03-27 00:00:47	kobongsu:[데스나이트]	성공	[905853008]+4룸티스의붉은빛귀걸이
2017-03-27 00:00:48	kobongsu:[데스나이트]	실패	[905853011]+3룸티스의붉은빛귀걸이
2017-03-27 00:00:48	kobongsu:[데스나이트]	성공	[905853013]+4룸티스의붉은빛귀걸이
2017-03-27 00:00:49	kobongsu:[데스나이트]	실패	[905853022]+3룸티스의붉은빛귀걸이
2017-03-27 00:00:50	kobongsu:[데스나이트]	실패	[905853025]+3룸티스의붉은빛귀걸이
2017-03-27 00:00:50	kobongsu:[데스나이트]	실패	[905853032]+3룸티스의붉은빛귀걸이
2017-03-27 00:00:51	kobongsu:[데스나이트]	성공	[905853038]+4룸티스의붉은빛귀걸이
2017-03-27 00:00:51	kobongsu:[데스나이트]	성공	[905853044]+4룸티스의붉은빛귀걸이
2017-03-27 00:00:52	kobongsu:[데스나이트]	실패	[905853048]+3룸티스의붉은빛귀걸이
2017-03-27 00:00:53	kobongsu:[데스나이트]	실패	[905853051]+3룸티스의붉은빛귀걸이
2017-03-27 00:00:54	kobongsu:[데스나이트]	실패	[905853054]+3룸티스의붉은빛귀걸이
2017-03-27 00:00:54	kobongsu:[데스나이트]	실패	[905853057]+3룸티스의붉은빛귀걸이
2017-03-27 00:00:55	kobongsu:[데스나이트]	성공	[905853068]+4룸티스의붉은빛귀걸이
2017-03-27 00:00:56	kobongsu:[데스나이트]	성공	[905853073]+4룸티스의붉은빛귀걸이
2017-03-27 00:00:56	kobongsu:[데스나이트]	실패	[905853077]+3룸티스의붉은빛귀걸이
2017-03-27 00:00:57	kobongsu:[데스나이트]	실패	[905853098]+3룸티스의붉은빛귀걸이
2017-03-27 00:00:58	kobongsu:[데스나이트]	실패	[905853118]+3룸티스의붉은빛귀걸이
2017-03-27 00:00:58	kobongsu:[데스나이트]	성공	[905853121]+4룸티스의붉은빛귀걸이
2017-03-27 00:00:59	kobongsu:[데스나이트]	성공	[905853126]+4룸티스의붉은빛귀걸이
2017-03-27 00:01:01	kobongsu:[데스나이트]	실패	[905853131]+3룸티스의붉은빛귀걸이
2017-03-27 00:01:01	kobongsu:[데스나이트]	성공	[905853137]+4룸티스의붉은빛귀걸이
2017-03-27 00:01:02	kobongsu:[데스나이트]	실패	[905853139]+3룸티스의붉은빛귀걸이
2017-03-27 00:01:03	kobongsu:[데스나이트]	성공	[905853142]+4룸티스의붉은빛귀걸이
2017-03-27 00:01:03	kobongsu:[데스나이트]	실패	[905853146]+3룸티스의붉은빛귀걸이
2017-03-27 00:01:04	kobongsu:[데스나이트]	실패	[905853156]+3룸티스의붉은빛귀걸이
2017-03-27 00:01:04	kobongsu:[데스나이트]	성공	[905853158]+4룸티스의붉은빛귀걸이
2017-03-27 00:01:05	kobongsu:[데스나이트]	실패	[905853162]+3룸티스의붉은빛귀걸이
2017-03-27 00:01:06	kobongsu:[데스나이트]	실패	[905853167]+3룸티스의붉은빛귀걸이
2017-03-27 00:01:06	kobongsu:[데스나이트]	실패	[905853175]+3룸티스의붉은빛귀걸이
2017-03-27 00:01:07	kobongsu:[데스나이트]	실패	[905853178]+3룸티스의붉은빛귀걸이
2017-03-27 00:01:08	kobongsu:[데스나이트]	실패	[905853186]+3룸티스의붉은빛귀걸이
2017-03-27 00:01:10	kobongsu:[데스나이트]	실패	[905852936]+4룸티스의붉은빛귀걸이
2017-03-27 00:01:11	kobongsu:[데스나이트]	성공	[905852987]+5룸티스의붉은빛귀걸이
2017-03-27 00:01:12	kobongsu:[데스나이트]	성공	[905852998]+5룸티스의붉은빛귀걸이
2017-03-27 00:01:12	kobongsu:[데스나이트]	실패	[905853008]+4룸티스의붉은빛귀걸이
2017-03-27 00:01:13	kobongsu:[데스나이트]	성공	[905853013]+5룸티스의붉은빛귀걸이
2017-03-27 00:01:14	kobongsu:[데스나이트]	실패	[905853038]+4룸티스의붉은빛귀걸이
2017-03-27 00:01:14	kobongsu:[데스나이트]	실패	[905853044]+4룸티스의붉은빛귀걸이
2017-03-27 00:01:15	kobongsu:[데스나이트]	실패	[905853068]+4룸티스의붉은빛귀걸이
2017-03-27 00:01:15	kobongsu:[데스나이트]	실패	[905853073]+4룸티스의붉은빛귀걸이
2017-03-27 00:01:16	kobongsu:[데스나이트]	성공	[905853121]+5룸티스의붉은빛귀걸이
2017-03-27 00:01:17	kobongsu:[데스나이트]	성공	[905853126]+5룸티스의붉은빛귀걸이
2017-03-27 00:01:17	kobongsu:[데스나이트]	성공	[905853137]+5룸티스의붉은빛귀걸이
2017-03-27 00:01:18	kobongsu:[데스나이트]	실패	[905853142]+4룸티스의붉은빛귀걸이
2017-03-27 00:01:19	kobongsu:[데스나이트]	실패	[905853158]+4룸티스의붉은빛귀걸이
2017-03-27 00:01:19	kobongsu:[데스나이트]	성공	[905852987]+6룸티스의붉은빛귀걸이
2017-03-27 00:01:20	kobongsu:[데스나이트]	실패	[905852998]+5룸티스의붉은빛귀걸이
2017-03-27 00:01:21	kobongsu:[데스나이트]	성공	[905853121]+6룸티스의붉은빛귀걸이
2017-03-27 00:01:22	kobongsu:[데스나이트]	실패	[905853013]+5룸티스의붉은빛귀걸이
2017-03-27 00:01:23	kobongsu:[데스나이트]	성공	[905853137]+6룸티스의붉은빛귀걸이
2017-03-27 00:01:25	kobongsu:[데스나이트]	실패	[905853126]+5룸티스의붉은빛귀걸이
2017-03-27 00:01:26	kobongsu:[데스나이트]	실패	[905852987]+6룸티스의붉은빛귀걸이
2017-03-27 00:01:28	kobongsu:[데스나이트]	실패	[905853121]+6룸티스의붉은빛귀걸이
2017-03-27 00:01:39	kobongsu:[데스나이트]	실패	[905797125]+5룸티스의붉은빛귀걸이
2017-03-27 00:03:41	jms3206:[토시오]	성공	[905775225]+4기백의 반지
2017-03-27 00:03:42	jms3206:[토시오]	성공	[905775225]+5기백의 반지
2017-03-27 00:03:43	jms3206:[토시오]	성공	[905775225]+4기백의 반지
2017-03-27 00:03:45	jms3206:[토시오]	성공	[905775225]+3기백의 반지
2017-03-27 00:03:46	jms3206:[토시오]	성공	[905775225]+2기백의 반지
2017-03-27 00:03:47	jms3206:[토시오]	성공	[905775225]+3기백의 반지
2017-03-27 00:03:48	jms3206:[토시오]	성공	[905775225]+4기백의 반지
2017-03-27 00:03:49	jms3206:[토시오]	성공	[905775225]+3기백의 반지
2017-03-27 00:03:50	jms3206:[토시오]	성공	[905775225]+4기백의 반지
2017-03-27 00:03:52	jms3206:[토시오]	성공	[905775225]+5기백의 반지
2017-03-27 00:03:53	jms3206:[토시오]	성공	[905774480]+4마왕의 반지
2017-03-27 00:03:54	jms3206:[토시오]	성공	[905774956]+4\aH지식의 벨트
2017-03-27 00:03:55	jms3206:[토시오]	성공	[905775224]+4마왕의 반지
2017-03-27 00:03:56	jms3206:[토시오]	성공	[905775274]+4현자의 목걸이
2017-03-27 00:03:57	jms3206:[토시오]	성공	[905775225]+6기백의 반지
2017-03-27 00:04:03	jms3206:[토시오]	성공	[905774480]+3마왕의 반지
2017-03-27 00:04:04	jms3206:[토시오]	성공	[905774956]+5\aH지식의 벨트
2017-03-27 00:04:06	jms3206:[토시오]	성공	[905775224]+3마왕의 반지
2017-03-27 00:04:07	jms3206:[토시오]	성공	[905775274]+3현자의 목걸이
2017-03-27 00:04:08	jms3206:[토시오]	성공	[905774480]+4마왕의 반지
2017-03-27 00:04:09	jms3206:[토시오]	성공	[905775224]+4마왕의 반지
2017-03-27 00:04:10	jms3206:[토시오]	성공	[905775274]+4현자의 목걸이
2017-03-27 00:04:11	jms3206:[토시오]	성공	[905774480]+3마왕의 반지
2017-03-27 00:04:12	jms3206:[토시오]	성공	[905775224]+3마왕의 반지
2017-03-27 00:04:13	jms3206:[토시오]	성공	[905775274]+3현자의 목걸이
2017-03-27 00:04:15	jms3206:[토시오]	성공	[905774480]+2마왕의 반지
2017-03-27 00:04:16	jms3206:[토시오]	성공	[905775224]+4마왕의 반지
2017-03-27 00:04:19	jms3206:[토시오]	성공	[905775274]+4현자의 목걸이
2017-03-27 00:04:30	jms3206:[토시오]	성공	[905774480]+3마왕의 반지
2017-03-27 00:04:31	jms3206:[토시오]	성공	[905774480]+2마왕의 반지
2017-03-27 00:04:32	jms3206:[토시오]	성공	[905774480]+3마왕의 반지
2017-03-27 00:04:33	jms3206:[토시오]	성공	[905774480]+2마왕의 반지
2017-03-27 00:04:34	jms3206:[토시오]	성공	[905774480]+3마왕의 반지
2017-03-27 00:04:36	jms3206:[토시오]	성공	[905774480]+4마왕의 반지
2017-03-27 00:04:37	jms3206:[토시오]	성공	[905774480]+3마왕의 반지
2017-03-27 00:04:43	jms3206:[토시오]	성공	[905774480]+2마왕의 반지
2017-03-27 00:04:45	jms3206:[토시오]	성공	[905775224]+3마왕의 반지
2017-03-27 00:04:47	jms3206:[토시오]	성공	[905775274]+3현자의 목걸이
2017-03-27 00:05:04	jms3206:[토시오]	성공	[905774480]+3마왕의 반지
2017-03-27 00:05:06	jms3206:[토시오]	성공	[905774480]+2마왕의 반지
2017-03-27 00:05:07	jms3206:[토시오]	성공	[905775224]+2마왕의 반지
2017-03-27 00:05:08	jms3206:[토시오]	성공	[905775274]+2현자의 목걸이
2017-03-27 00:05:09	jms3206:[토시오]	성공	[905774480]+3마왕의 반지
2017-03-27 00:05:10	jms3206:[토시오]	성공	[905775224]+3마왕의 반지
2017-03-27 00:05:12	jms3206:[토시오]	성공	[905775274]+3현자의 목걸이
2017-03-27 00:05:13	jms3206:[토시오]	성공	[905774480]+2마왕의 반지
2017-03-27 00:05:14	jms3206:[토시오]	성공	[905775224]+4마왕의 반지
2017-03-27 00:05:15	jms3206:[토시오]	성공	[905775274]+2현자의 목걸이
2017-03-27 00:05:16	jms3206:[토시오]	성공	[905774480]+3마왕의 반지
2017-03-27 00:05:17	jms3206:[토시오]	성공	[905775274]+3현자의 목걸이
2017-03-27 00:05:18	jms3206:[토시오]	성공	[905774480]+4마왕의 반지
2017-03-27 00:05:19	jms3206:[토시오]	성공	[905775274]+2현자의 목걸이
2017-03-27 00:05:21	jms3206:[토시오]	성공	[905775274]+3현자의 목걸이
2017-03-27 00:05:22	jms3206:[토시오]	성공	[905775274]+2현자의 목걸이
2017-03-27 00:05:24	jms3206:[토시오]	성공	[905775274]+3현자의 목걸이
2017-03-27 00:05:25	jms3206:[토시오]	성공	[905775274]+4현자의 목걸이
2017-03-27 00:05:51	jms3206:[토시오]	성공	[905774480]+5마왕의 반지
2017-03-27 00:05:53	jms3206:[토시오]	성공	[905775224]+3마왕의 반지
2017-03-27 00:05:54	jms3206:[토시오]	성공	[905775274]+3현자의 목걸이
2017-03-27 00:05:56	jms3206:[토시오]	성공	[905775274]+4현자의 목걸이
2017-03-27 00:05:58	jms3206:[토시오]	성공	[905775224]+4마왕의 반지
2017-03-27 00:05:59	jms3206:[토시오]	성공	[905775274]+3현자의 목걸이
2017-03-27 00:06:00	jms3206:[토시오]	성공	[905775224]+3마왕의 반지
2017-03-27 00:06:01	jms3206:[토시오]	성공	[905775274]+4현자의 목걸이
2017-03-27 00:06:02	jms3206:[토시오]	성공	[905775224]+4마왕의 반지
2017-03-27 00:06:03	jms3206:[토시오]	성공	[905775274]+3현자의 목걸이
2017-03-27 00:06:05	jms3206:[토시오]	성공	[905775224]+5마왕의 반지
2017-03-27 00:06:06	jms3206:[토시오]	성공	[905775274]+2현자의 목걸이
2017-03-27 00:06:07	jms3206:[토시오]	성공	[905775274]+1현자의 목걸이
2017-03-27 00:06:08	jms3206:[토시오]	성공	[905775274]+2현자의 목걸이
2017-03-27 00:06:09	jms3206:[토시오]	성공	[905775274]+1현자의 목걸이
2017-03-27 00:06:10	jms3206:[토시오]	성공	[905775274]+2현자의 목걸이
2017-03-27 00:06:12	jms3206:[토시오]	성공	[905775274]+1현자의 목걸이
2017-03-27 00:06:13	jms3206:[토시오]	성공	[905775224]+4마왕의 반지
2017-03-27 00:06:14	jms3206:[토시오]	성공	[905774956]+4\aH지식의 벨트
2017-03-27 00:06:16	jms3206:[토시오]	성공	[905774480]+6마왕의 반지
2017-03-27 00:06:17	jms3206:[토시오]	성공	[905774956]+3\aH지식의 벨트
2017-03-27 00:06:18	jms3206:[토시오]	성공	[905775274]+2현자의 목걸이
2017-03-27 00:06:19	jms3206:[토시오]	성공	[905775224]+3마왕의 반지
2017-03-27 00:06:20	jms3206:[토시오]	성공	[905774956]+2\aH지식의 벨트
2017-03-27 00:06:21	jms3206:[토시오]	성공	[905775224]+2마왕의 반지
2017-03-27 00:06:22	jms3206:[토시오]	성공	[905775274]+1현자의 목걸이
2017-03-27 00:06:23	jms3206:[토시오]	성공	[905775224]+3마왕의 반지
2017-03-27 00:06:24	jms3206:[토시오]	성공	[905774956]+1\aH지식의 벨트
2017-03-27 00:06:25	jms3206:[토시오]	성공	[905775274]+2현자의 목걸이
2017-03-27 00:06:26	jms3206:[토시오]	성공	[905774956]+2\aH지식의 벨트
2017-03-27 00:06:28	jms3206:[토시오]	성공	[905775274]+3현자의 목걸이
2017-03-27 00:06:29	jms3206:[토시오]	성공	[905774956]+1\aH지식의 벨트
2017-03-27 00:06:30	jms3206:[토시오]	성공	[905775224]+4마왕의 반지
2017-03-27 00:06:31	jms3206:[토시오]	성공	[905775274]+2현자의 목걸이
2017-03-27 00:06:32	jms3206:[토시오]	성공	[905774956]+2\aH지식의 벨트
2017-03-27 00:06:33	jms3206:[토시오]	성공	[905775274]+3현자의 목걸이
2017-03-27 00:06:34	jms3206:[토시오]	성공	[905774956]+3\aH지식의 벨트
2017-03-27 00:06:35	jms3206:[토시오]	성공	[905775274]+2현자의 목걸이
2017-03-27 00:06:36	jms3206:[토시오]	성공	[905774956]+4\aH지식의 벨트
2017-03-27 00:06:37	jms3206:[토시오]	성공	[905775274]+3현자의 목걸이
2017-03-27 00:06:39	jms3206:[토시오]	성공	[905775274]+4현자의 목걸이
2017-03-27 00:06:40	jms3206:[토시오]	성공	[905774956]+3\aH지식의 벨트
2017-03-27 00:06:41	jms3206:[토시오]	성공	[905775224]+3마왕의 반지
2017-03-27 00:06:42	jms3206:[토시오]	성공	[905775274]+5현자의 목걸이
2017-03-27 00:06:43	jms3206:[토시오]	성공	[905774956]+4\aH지식의 벨트
2017-03-27 00:06:44	jms3206:[토시오]	성공	[905775224]+2마왕의 반지
2017-03-27 00:06:45	jms3206:[토시오]	성공	[905774956]+3\aH지식의 벨트
2017-03-27 00:06:46	jms3206:[토시오]	성공	[905775224]+3마왕의 반지
2017-03-27 00:06:48	jms3206:[토시오]	성공	[905774956]+4\aH지식의 벨트
2017-03-27 00:06:49	jms3206:[토시오]	성공	[905775224]+4마왕의 반지
2017-03-27 00:06:50	jms3206:[토시오]	성공	[905774956]+3\aH지식의 벨트
2017-03-27 00:06:51	jms3206:[토시오]	성공	[905775224]+3마왕의 반지
2017-03-27 00:06:52	jms3206:[토시오]	성공	[905775274]+4현자의 목걸이
2017-03-27 00:06:53	jms3206:[토시오]	성공	[905775224]+4마왕의 반지
2017-03-27 00:06:54	jms3206:[토시오]	성공	[905774956]+4\aH지식의 벨트
2017-03-27 00:06:55	jms3206:[토시오]	성공	[905775274]+3현자의 목걸이
2017-03-27 00:06:56	jms3206:[토시오]	성공	[905775224]+3마왕의 반지
2017-03-27 00:06:57	jms3206:[토시오]	성공	[905774956]+5\aH지식의 벨트
2017-03-27 00:06:59	jms3206:[토시오]	성공	[905775224]+2마왕의 반지
2017-03-27 00:07:00	jms3206:[토시오]	성공	[905775274]+2현자의 목걸이
2017-03-27 00:07:01	jms3206:[토시오]	성공	[905775224]+3마왕의 반지
2017-03-27 00:07:02	jms3206:[토시오]	성공	[905775274]+3현자의 목걸이
2017-03-27 00:07:03	jms3206:[토시오]	성공	[905775224]+4마왕의 반지
2017-03-27 00:07:04	jms3206:[토시오]	성공	[905775274]+2현자의 목걸이
2017-03-27 00:07:05	jms3206:[토시오]	성공	[905775224]+3마왕의 반지
2017-03-27 00:07:06	jms3206:[토시오]	성공	[905775274]+1현자의 목걸이
2017-03-27 00:07:07	jms3206:[토시오]	성공	[905775224]+4마왕의 반지
2017-03-27 00:07:08	jms3206:[토시오]	성공	[905775274]+2현자의 목걸이
2017-03-27 00:07:10	jms3206:[토시오]	성공	[905775224]+3마왕의 반지
2017-03-27 00:07:11	jms3206:[토시오]	성공	[905775274]+3현자의 목걸이
2017-03-27 00:07:12	jms3206:[토시오]	성공	[905775224]+4마왕의 반지
2017-03-27 00:07:13	jms3206:[토시오]	성공	[905775274]+2현자의 목걸이
2017-03-27 00:07:14	jms3206:[토시오]	성공	[905775274]+3현자의 목걸이
2017-03-27 00:07:15	jms3206:[토시오]	성공	[905775274]+2현자의 목걸이
2017-03-27 00:07:16	jms3206:[토시오]	성공	[905775274]+3현자의 목걸이
2017-03-27 00:07:17	jms3206:[토시오]	성공	[905775274]+2현자의 목걸이
2017-03-27 00:07:18	jms3206:[토시오]	성공	[905775274]+3현자의 목걸이
2017-03-27 00:07:19	jms3206:[토시오]	성공	[905775274]+4현자의 목걸이
2017-03-27 00:07:20	jms3206:[토시오]	성공	[905775274]+3현자의 목걸이
2017-03-27 00:07:22	jms3206:[토시오]	성공	[905775224]+5마왕의 반지
2017-03-27 00:07:23	jms3206:[토시오]	성공	[905775274]+2현자의 목걸이
2017-03-27 00:07:24	jms3206:[토시오]	성공	[905775274]+3현자의 목걸이
2017-03-27 00:07:25	jms3206:[토시오]	성공	[905775274]+2현자의 목걸이
2017-03-27 00:07:26	jms3206:[토시오]	성공	[905775274]+3현자의 목걸이
2017-03-27 00:07:27	jms3206:[토시오]	성공	[905775274]+4현자의 목걸이
2017-03-27 00:07:28	jms3206:[토시오]	성공	[905775274]+3현자의 목걸이
2017-03-27 00:07:29	jms3206:[토시오]	성공	[905775274]+4현자의 목걸이
2017-03-27 00:07:30	jms3206:[토시오]	성공	[905775274]+3현자의 목걸이
2017-03-27 00:07:31	jms3206:[토시오]	성공	[905775274]+4현자의 목걸이
2017-03-27 00:07:33	jms3206:[토시오]	성공	[905775274]+3현자의 목걸이
2017-03-27 00:07:34	jms3206:[토시오]	성공	[905775274]+2현자의 목걸이
2017-03-27 00:07:35	jms3206:[토시오]	성공	[905775274]+3현자의 목걸이
2017-03-27 00:07:36	jms3206:[토시오]	성공	[905775274]+4현자의 목걸이
2017-03-27 00:07:37	jms3206:[토시오]	성공	[905775274]+3현자의 목걸이
2017-03-27 00:07:38	jms3206:[토시오]	성공	[905775274]+4현자의 목걸이
2017-03-27 00:07:39	jms3206:[토시오]	성공	[905775274]+3현자의 목걸이
2017-03-27 00:07:40	jms3206:[토시오]	성공	[905775274]+2현자의 목걸이
2017-03-27 00:07:41	jms3206:[토시오]	성공	[905775274]+3현자의 목걸이
2017-03-27 00:07:42	jms3206:[토시오]	성공	[905775274]+2현자의 목걸이
2017-03-27 00:07:44	jms3206:[토시오]	성공	[905775274]+3현자의 목걸이
2017-03-27 00:07:45	jms3206:[토시오]	성공	[905775274]+2현자의 목걸이
2017-03-27 00:07:46	jms3206:[토시오]	성공	[905775274]+3현자의 목걸이
2017-03-27 00:07:47	jms3206:[토시오]	성공	[905775274]+4현자의 목걸이
2017-03-27 00:07:48	jms3206:[토시오]	성공	[905775274]+3현자의 목걸이
2017-03-27 00:07:49	jms3206:[토시오]	성공	[905775274]+4현자의 목걸이
2017-03-27 00:07:50	jms3206:[토시오]	성공	[905775274]+3현자의 목걸이
2017-03-27 00:07:51	jms3206:[토시오]	성공	[905775274]+2현자의 목걸이
2017-03-27 00:07:53	jms3206:[토시오]	성공	[905775274]+3현자의 목걸이
2017-03-27 00:07:54	jms3206:[토시오]	성공	[905775274]+2현자의 목걸이
2017-03-27 00:07:55	jms3206:[토시오]	성공	[905775274]+3현자의 목걸이
2017-03-27 00:07:56	jms3206:[토시오]	성공	[905775274]+4현자의 목걸이
2017-03-27 00:07:57	jms3206:[토시오]	성공	[905775274]+3현자의 목걸이
2017-03-27 00:07:58	jms3206:[토시오]	성공	[905775274]+2현자의 목걸이
2017-03-27 00:07:59	jms3206:[토시오]	성공	[905775274]+3현자의 목걸이
2017-03-27 00:08:00	jms3206:[토시오]	성공	[905775274]+2현자의 목걸이
2017-03-27 00:08:01	jms3206:[토시오]	성공	[905775274]+1현자의 목걸이
2017-03-27 00:08:03	jms3206:[토시오]	성공	[905775224]+4마왕의 반지
2017-03-27 00:08:04	jms3206:[토시오]	성공	[905774956]+4\aH지식의 벨트
2017-03-27 00:08:05	jms3206:[토시오]	성공	[905775274]+2현자의 목걸이
2017-03-27 00:08:07	jms3206:[토시오]	성공	[905774956]+5\aH지식의 벨트
2017-03-27 00:08:08	jms3206:[토시오]	성공	[905775224]+3마왕의 반지
2017-03-27 00:08:09	jms3206:[토시오]	성공	[905775274]+3현자의 목걸이
2017-03-27 00:08:10	jms3206:[토시오]	성공	[905775224]+2마왕의 반지
2017-03-27 00:08:11	jms3206:[토시오]	성공	[905775274]+2현자의 목걸이
2017-03-27 00:08:12	jms3206:[토시오]	성공	[905775224]+3마왕의 반지
2017-03-27 00:08:13	jms3206:[토시오]	성공	[905775274]+3현자의 목걸이
2017-03-27 00:08:14	jms3206:[토시오]	성공	[905775224]+4마왕의 반지
2017-03-27 00:08:15	jms3206:[토시오]	성공	[905775274]+4현자의 목걸이
2017-03-27 00:08:16	jms3206:[토시오]	성공	[905775224]+5마왕의 반지
2017-03-27 00:08:18	jms3206:[토시오]	성공	[905775274]+3현자의 목걸이
2017-03-27 00:08:20	jms3206:[토시오]	성공	[905774956]+6\aH지식의 벨트
2017-03-27 00:08:21	jms3206:[토시오]	성공	[905775224]+6마왕의 반지
2017-03-27 00:08:22	jms3206:[토시오]	성공	[905775274]+4현자의 목걸이
2017-03-27 00:08:23	jms3206:[토시오]	성공	[905775274]+3현자의 목걸이
2017-03-27 00:08:24	jms3206:[토시오]	성공	[905775274]+2현자의 목걸이
2017-03-27 00:08:25	jms3206:[토시오]	성공	[905775274]+1현자의 목걸이
2017-03-27 00:08:26	jms3206:[토시오]	성공	[905775274]+2현자의 목걸이
2017-03-27 00:08:27	jms3206:[토시오]	성공	[905775274]+3현자의 목걸이
2017-03-27 00:08:28	jms3206:[토시오]	성공	[905775274]+2현자의 목걸이
2017-03-27 00:08:30	jms3206:[토시오]	성공	[905775274]+3현자의 목걸이
2017-03-27 00:08:31	jms3206:[토시오]	성공	[905775274]+4현자의 목걸이
2017-03-27 00:08:32	jms3206:[토시오]	성공	[905775274]+3현자의 목걸이
2017-03-27 00:08:33	jms3206:[토시오]	성공	[905775274]+4현자의 목걸이
2017-03-27 00:08:35	jms3206:[토시오]	성공	[905775274]+3현자의 목걸이
2017-03-27 00:08:36	jms3206:[토시오]	성공	[905775274]+2현자의 목걸이
2017-03-27 00:08:37	jms3206:[토시오]	성공	[905775274]+3현자의 목걸이
2017-03-27 00:08:38	jms3206:[토시오]	성공	[905775274]+2현자의 목걸이
2017-03-27 00:08:39	jms3206:[토시오]	성공	[905775274]+3현자의 목걸이
2017-03-27 00:08:41	jms3206:[토시오]	성공	[905775274]+4현자의 목걸이
2017-03-27 00:08:43	jms3206:[토시오]	성공	[905775274]+3현자의 목걸이
2017-03-27 00:08:44	jms3206:[토시오]	성공	[905775274]+2현자의 목걸이
2017-03-27 00:08:45	jms3206:[토시오]	성공	[905775274]+3현자의 목걸이
2017-03-27 00:08:47	jms3206:[토시오]	성공	[905775274]+4현자의 목걸이
2017-03-27 00:08:48	jms3206:[토시오]	성공	[905775274]+3현자의 목걸이
2017-03-27 00:08:49	jms3206:[토시오]	성공	[905775274]+4현자의 목걸이
2017-03-27 00:08:51	jms3206:[토시오]	성공	[905775274]+3현자의 목걸이
2017-03-27 00:08:52	jms3206:[토시오]	성공	[905775274]+4현자의 목걸이
2017-03-27 00:08:53	jms3206:[토시오]	성공	[905775274]+5현자의 목걸이
2017-03-27 00:08:55	jms3206:[토시오]	성공	[905775274]+4현자의 목걸이
2017-03-27 00:08:56	jms3206:[토시오]	성공	[905775274]+3현자의 목걸이
2017-03-27 00:08:57	jms3206:[토시오]	성공	[905775274]+4현자의 목걸이
2017-03-27 00:09:07	jms3206:[토시오]	성공	[905753574]+7투사의 목걸이
2017-03-27 00:09:09	jms3206:[토시오]	성공	[905753574]+8투사의 목걸이
2017-03-27 00:09:24	jms3206:[토시오]	성공	[905753549]+7노예의 귀걸이
2017-03-27 00:09:34	jms3206:[토시오]	성공	[905775225]+7기백의 반지
2017-03-27 00:09:35	jms3206:[토시오]	성공	[905754011]+7에이션트 자이언트의 반지
2017-03-27 00:09:45	jms3206:[토시오]	성공	[905774481]+7기백의 반지
2017-03-27 00:09:47	jms3206:[토시오]	성공	[905753549]+8노예의 귀걸이
2017-03-27 00:12:53	jms3206:[토시오]	성공	[905775274]+3현자의 목걸이
2017-03-27 00:12:55	jms3206:[토시오]	성공	[905775274]+4현자의 목걸이
2017-03-27 00:12:56	jms3206:[토시오]	성공	[905775274]+5현자의 목걸이
2017-03-27 00:12:57	jms3206:[토시오]	성공	[905775274]+4현자의 목걸이
2017-03-27 00:12:58	jms3206:[토시오]	성공	[905776235]+6\aH크로노스의 벨트
2017-03-27 00:12:59	jms3206:[토시오]	성공	[905775716]+4\aH민첩의 벨트
2017-03-27 00:13:01	jms3206:[토시오]	성공	[905774499]+6빛나는 사이하의 목걸이
2017-03-27 00:13:04	jms3206:[토시오]	성공	[905775274]+3현자의 목걸이
2017-03-27 00:13:05	jms3206:[토시오]	성공	[905775716]+3\aH민첩의 벨트
2017-03-27 00:13:07	jms3206:[토시오]	성공	[905775716]+4\aH민첩의 벨트
2017-03-27 00:13:08	jms3206:[토시오]	성공	[905775274]+4현자의 목걸이
2017-03-27 00:13:09	jms3206:[토시오]	성공	[905775274]+3현자의 목걸이
2017-03-27 00:13:10	jms3206:[토시오]	성공	[905775716]+5\aH민첩의 벨트
2017-03-27 00:13:11	jms3206:[토시오]	성공	[905775274]+2현자의 목걸이
2017-03-27 00:13:13	jms3206:[토시오]	성공	[905775274]+3현자의 목걸이
2017-03-27 00:13:14	jms3206:[토시오]	성공	[905775274]+2현자의 목걸이
2017-03-27 00:13:15	jms3206:[토시오]	성공	[905775274]+3현자의 목걸이
2017-03-27 00:13:16	jms3206:[토시오]	성공	[905775274]+4현자의 목걸이
2017-03-27 00:13:17	jms3206:[토시오]	성공	[905775274]+3현자의 목걸이
2017-03-27 00:13:19	jms3206:[토시오]	성공	[905775274]+4현자의 목걸이
2017-03-27 00:13:20	jms3206:[토시오]	성공	[905775274]+3현자의 목걸이
2017-03-27 00:13:21	jms3206:[토시오]	성공	[905775274]+4현자의 목걸이
2017-03-27 00:13:22	jms3206:[토시오]	성공	[905775274]+3현자의 목걸이
2017-03-27 00:13:23	jms3206:[토시오]	성공	[905775274]+4현자의 목걸이
2017-03-27 00:13:24	jms3206:[토시오]	성공	[905775274]+5현자의 목걸이
2017-03-27 00:13:25	jms3206:[토시오]	성공	[905775274]+4현자의 목걸이
2017-03-27 00:13:26	jms3206:[토시오]	성공	[905775274]+5현자의 목걸이
2017-03-27 00:13:28	jms3206:[토시오]	성공	[905775274]+4현자의 목걸이
2017-03-27 00:13:29	jms3206:[토시오]	성공	[905775274]+5현자의 목걸이
2017-03-27 00:13:30	jms3206:[토시오]	성공	[905775716]+4\aH민첩의 벨트
2017-03-27 00:13:32	jms3206:[토시오]	성공	[905775274]+4현자의 목걸이
2017-03-27 00:13:33	jms3206:[토시오]	성공	[905775274]+3현자의 목걸이
2017-03-27 00:13:34	jms3206:[토시오]	성공	[905775716]+3\aH민첩의 벨트
2017-03-27 00:13:36	jms3206:[토시오]	성공	[905775274]+4현자의 목걸이
2017-03-27 00:13:37	jms3206:[토시오]	성공	[905775716]+2\aH민첩의 벨트
2017-03-27 00:13:38	jms3206:[토시오]	성공	[905775274]+5현자의 목걸이
2017-03-27 00:13:39	jms3206:[토시오]	성공	[905775716]+3\aH민첩의 벨트
2017-03-27 00:13:40	jms3206:[토시오]	성공	[905775716]+2\aH민첩의 벨트
2017-03-27 00:13:41	jms3206:[토시오]	성공	[905775716]+3\aH민첩의 벨트
2017-03-27 00:13:42	jms3206:[토시오]	성공	[905775716]+4\aH민첩의 벨트
2017-03-27 00:13:43	jms3206:[토시오]	성공	[905775716]+3\aH민첩의 벨트
2017-03-27 00:13:45	jms3206:[토시오]	성공	[905775716]+2\aH민첩의 벨트
2017-03-27 00:13:46	jms3206:[토시오]	성공	[905775716]+3\aH민첩의 벨트
2017-03-27 00:13:47	jms3206:[토시오]	성공	[905775716]+2\aH민첩의 벨트
2017-03-27 00:13:48	jms3206:[토시오]	성공	[905775716]+3\aH민첩의 벨트
2017-03-27 00:13:49	jms3206:[토시오]	성공	[905775716]+4\aH민첩의 벨트
2017-03-27 00:13:50	jms3206:[토시오]	성공	[905775716]+5\aH민첩의 벨트
2017-03-27 00:13:51	jms3206:[토시오]	성공	[905775274]+4현자의 목걸이
2017-03-27 00:13:53	jms3206:[토시오]	성공	[905775716]+6\aH민첩의 벨트
2017-03-27 00:13:54	jms3206:[토시오]	성공	[905775274]+3현자의 목걸이
2017-03-27 00:13:55	jms3206:[토시오]	성공	[905775274]+4현자의 목걸이
2017-03-27 00:13:56	jms3206:[토시오]	성공	[905775274]+3현자의 목걸이
2017-03-27 00:13:58	jms3206:[토시오]	성공	[905775274]+4현자의 목걸이
2017-03-27 00:13:59	jms3206:[토시오]	성공	[905775274]+3현자의 목걸이
2017-03-27 00:14:00	jms3206:[토시오]	성공	[905775274]+4현자의 목걸이
2017-03-27 00:14:01	jms3206:[토시오]	성공	[905775274]+5현자의 목걸이
2017-03-27 00:14:03	jms3206:[토시오]	성공	[905775274]+6현자의 목걸이
2017-03-27 00:14:36	jms3206:[토시오]	성공	[905753574]+9투사의 목걸이
2017-03-27 00:14:37	jms3206:[토시오]	성공	[905753549]+9노예의 귀걸이
2017-03-27 00:14:40	jms3206:[토시오]	성공	[905775225]+8기백의 반지
2017-03-27 00:14:56	jms3206:[토시오]	성공	[905754011]+8에이션트 자이언트의 반지
2017-03-27 00:15:00	jms3206:[토시오]	성공	[905774481]+8기백의 반지
2017-03-27 00:55:52	jms3206:[토시오]	성공	[905883752]+7뱀파이어의 망토
2017-03-27 00:55:52	jms3206:[토시오]	성공	[905883752]+8뱀파이어의 망토
2017-03-27 00:55:53	jms3206:[토시오]	실패	[905883752]+8뱀파이어의 망토
2017-03-27 00:59:22	kobongsu:[데스나이트]	성공	[905885798]+1노예의 귀걸이
2017-03-27 00:59:23	kobongsu:[데스나이트]	성공	[905885799]+1투사의 목걸이
2017-03-27 00:59:25	kobongsu:[데스나이트]	성공	[905885800]+1기백의 반지
2017-03-27 00:59:26	kobongsu:[데스나이트]	성공	[905885800]+2기백의 반지
2017-03-27 00:59:28	kobongsu:[데스나이트]	성공	[905885800]+3기백의 반지
2017-03-27 00:59:29	kobongsu:[데스나이트]	성공	[905885800]+2기백의 반지
2017-03-27 00:59:30	kobongsu:[데스나이트]	성공	[905885800]+3기백의 반지
2017-03-27 00:59:32	kobongsu:[데스나이트]	성공	[905885800]+2기백의 반지
2017-03-27 00:59:33	kobongsu:[데스나이트]	성공	[905885800]+3기백의 반지
2017-03-27 00:59:34	kobongsu:[데스나이트]	성공	[905885800]+4기백의 반지
2017-03-27 00:59:35	kobongsu:[데스나이트]	성공	[905885800]+3기백의 반지
2017-03-27 00:59:36	kobongsu:[데스나이트]	성공	[905885800]+4기백의 반지
2017-03-27 00:59:37	kobongsu:[데스나이트]	성공	[905885800]+5기백의 반지
2017-03-27 00:59:39	kobongsu:[데스나이트]	성공	[905885836]+1기백의 반지
2017-03-27 00:59:40	kobongsu:[데스나이트]	성공	[905885836]+2기백의 반지
2017-03-27 00:59:41	kobongsu:[데스나이트]	성공	[905885836]+3기백의 반지
2017-03-27 00:59:42	kobongsu:[데스나이트]	성공	[905885836]+4기백의 반지
2017-03-27 00:59:43	kobongsu:[데스나이트]	성공	[905885836]+3기백의 반지
2017-03-27 00:59:44	kobongsu:[데스나이트]	성공	[905885836]+2기백의 반지
2017-03-27 00:59:46	kobongsu:[데스나이트]	성공	[905885836]+3기백의 반지
2017-03-27 00:59:47	kobongsu:[데스나이트]	성공	[905885836]+4기백의 반지
2017-03-27 00:59:48	kobongsu:[데스나이트]	성공	[905885836]+3기백의 반지
2017-03-27 00:59:49	kobongsu:[데스나이트]	성공	[905885836]+2기백의 반지
2017-03-27 00:59:50	kobongsu:[데스나이트]	성공	[905885836]+3기백의 반지
2017-03-27 00:59:51	kobongsu:[데스나이트]	성공	[905885836]+4기백의 반지
2017-03-27 00:59:52	kobongsu:[데스나이트]	성공	[905885836]+5기백의 반지
2017-03-27 00:59:54	kobongsu:[데스나이트]	성공	[905885798]+2노예의 귀걸이
2017-03-27 00:59:55	kobongsu:[데스나이트]	성공	[905885798]+3노예의 귀걸이
2017-03-27 00:59:56	kobongsu:[데스나이트]	성공	[905885798]+4노예의 귀걸이
2017-03-27 00:59:57	kobongsu:[데스나이트]	성공	[905885798]+5노예의 귀걸이
2017-03-27 00:59:58	kobongsu:[데스나이트]	성공	[905885799]+2투사의 목걸이
2017-03-27 00:59:59	kobongsu:[데스나이트]	성공	[905885799]+1투사의 목걸이
2017-03-27 01:00:00	kobongsu:[데스나이트]	성공	[905885799]+2투사의 목걸이
2017-03-27 01:00:01	kobongsu:[데스나이트]	성공	[905885799]+3투사의 목걸이
2017-03-27 01:00:02	kobongsu:[데스나이트]	성공	[905885799]+4투사의 목걸이
2017-03-27 01:00:04	kobongsu:[데스나이트]	성공	[905885799]+3투사의 목걸이
2017-03-27 01:00:05	kobongsu:[데스나이트]	성공	[905885799]+2투사의 목걸이
2017-03-27 01:00:06	kobongsu:[데스나이트]	성공	[905885799]+1투사의 목걸이
2017-03-27 01:00:07	kobongsu:[데스나이트]	성공	[905885799]+2투사의 목걸이
2017-03-27 01:00:08	kobongsu:[데스나이트]	성공	[905885799]+3투사의 목걸이
2017-03-27 01:00:09	kobongsu:[데스나이트]	성공	[905885799]+2투사의 목걸이
2017-03-27 01:00:10	kobongsu:[데스나이트]	성공	[905885799]+1투사의 목걸이
2017-03-27 01:00:11	kobongsu:[데스나이트]	성공	[905885799]+2투사의 목걸이
2017-03-27 01:00:12	kobongsu:[데스나이트]	성공	[905885799]+3투사의 목걸이
2017-03-27 01:00:13	kobongsu:[데스나이트]	성공	[905885799]+2투사의 목걸이
2017-03-27 01:00:14	kobongsu:[데스나이트]	성공	[905885799]+3투사의 목걸이
2017-03-27 01:00:15	kobongsu:[데스나이트]	성공	[905885799]+2투사의 목걸이
2017-03-27 01:00:16	kobongsu:[데스나이트]	성공	[905885799]+1투사의 목걸이
2017-03-27 01:00:18	kobongsu:[데스나이트]	성공	[905885799]+2투사의 목걸이
2017-03-27 01:00:19	kobongsu:[데스나이트]	성공	[905885799]+3투사의 목걸이
2017-03-27 01:00:20	kobongsu:[데스나이트]	성공	[905885799]+4투사의 목걸이
2017-03-27 01:00:21	kobongsu:[데스나이트]	성공	[905885799]+3투사의 목걸이
2017-03-27 01:00:22	kobongsu:[데스나이트]	성공	[905885799]+4투사의 목걸이
2017-03-27 01:00:23	kobongsu:[데스나이트]	성공	[905885799]+3투사의 목걸이
2017-03-27 01:00:24	kobongsu:[데스나이트]	성공	[905885799]+2투사의 목걸이
2017-03-27 01:00:25	kobongsu:[데스나이트]	성공	[905885799]+3투사의 목걸이
2017-03-27 01:00:26	kobongsu:[데스나이트]	성공	[905885799]+2투사의 목걸이
2017-03-27 01:00:27	kobongsu:[데스나이트]	성공	[905885799]+3투사의 목걸이
2017-03-27 01:00:29	kobongsu:[데스나이트]	성공	[905885799]+4투사의 목걸이
2017-03-27 01:00:30	kobongsu:[데스나이트]	성공	[905885799]+5투사의 목걸이
2017-03-27 01:00:32	kobongsu:[데스나이트]	성공	[905885798]+6노예의 귀걸이
2017-03-27 01:00:35	kobongsu:[데스나이트]	성공	[905885799]+4투사의 목걸이
2017-03-27 01:00:36	kobongsu:[데스나이트]	성공	[905885799]+3투사의 목걸이
2017-03-27 01:00:37	kobongsu:[데스나이트]	성공	[905885799]+2투사의 목걸이
2017-03-27 01:00:38	kobongsu:[데스나이트]	성공	[905885799]+3투사의 목걸이
2017-03-27 01:00:45	kobongsu:[데스나이트]	성공	[905885799]+2투사의 목걸이
2017-03-27 01:00:47	kobongsu:[데스나이트]	성공	[905885799]+3투사의 목걸이
2017-03-27 01:00:49	kobongsu:[데스나이트]	성공	[905885799]+4투사의 목걸이
2017-03-27 01:00:50	kobongsu:[데스나이트]	성공	[905885799]+3투사의 목걸이
2017-03-27 01:00:51	kobongsu:[데스나이트]	성공	[905885799]+2투사의 목걸이
2017-03-27 01:00:52	kobongsu:[데스나이트]	성공	[905885799]+3투사의 목걸이
2017-03-27 01:00:53	kobongsu:[데스나이트]	성공	[905885799]+4투사의 목걸이
2017-03-27 01:00:54	kobongsu:[데스나이트]	성공	[905885799]+3투사의 목걸이
2017-03-27 01:00:55	kobongsu:[데스나이트]	성공	[905885799]+4투사의 목걸이
2017-03-27 01:00:57	kobongsu:[데스나이트]	성공	[905885799]+3투사의 목걸이
2017-03-27 01:00:58	kobongsu:[데스나이트]	성공	[905885799]+4투사의 목걸이
2017-03-27 01:00:59	kobongsu:[데스나이트]	성공	[905885799]+3투사의 목걸이
2017-03-27 01:01:00	kobongsu:[데스나이트]	성공	[905885799]+2투사의 목걸이
2017-03-27 01:01:01	kobongsu:[데스나이트]	성공	[905885799]+3투사의 목걸이
2017-03-27 01:01:02	kobongsu:[데스나이트]	성공	[905885799]+2투사의 목걸이
2017-03-27 01:01:03	kobongsu:[데스나이트]	성공	[905885799]+3투사의 목걸이
2017-03-27 01:01:04	kobongsu:[데스나이트]	성공	[905885799]+4투사의 목걸이
2017-03-27 01:01:05	kobongsu:[데스나이트]	성공	[905885799]+5투사의 목걸이
2017-03-27 01:01:06	kobongsu:[데스나이트]	성공	[905885799]+4투사의 목걸이
2017-03-27 01:01:07	kobongsu:[데스나이트]	성공	[905885799]+3투사의 목걸이
2017-03-27 01:01:09	kobongsu:[데스나이트]	성공	[905885799]+2투사의 목걸이
2017-03-27 01:01:10	kobongsu:[데스나이트]	성공	[905885799]+3투사의 목걸이
2017-03-27 01:01:11	kobongsu:[데스나이트]	성공	[905885799]+2투사의 목걸이
2017-03-27 01:01:12	kobongsu:[데스나이트]	성공	[905885799]+3투사의 목걸이
2017-03-27 01:01:23	kobongsu:[데스나이트]	성공	[905885800]+6기백의 반지
2017-03-27 01:03:55	kobongsu:[데스나이트]	성공	[905885799]+2투사의 목걸이
2017-03-27 01:03:56	kobongsu:[데스나이트]	성공	[905885799]+1투사의 목걸이
2017-03-27 01:03:57	kobongsu:[데스나이트]	성공	[905885799]+2투사의 목걸이
2017-03-27 01:03:59	kobongsu:[데스나이트]	성공	[905885799]+3투사의 목걸이
2017-03-27 01:04:00	kobongsu:[데스나이트]	성공	[905885799]+4투사의 목걸이
2017-03-27 01:04:01	kobongsu:[데스나이트]	성공	[905885799]+3투사의 목걸이
2017-03-27 01:04:02	kobongsu:[데스나이트]	성공	[905885799]+2투사의 목걸이
2017-03-27 01:04:03	kobongsu:[데스나이트]	성공	[905885799]+1투사의 목걸이
2017-03-27 01:04:04	kobongsu:[데스나이트]	성공	[905885799]+2투사의 목걸이
2017-03-27 01:04:05	kobongsu:[데스나이트]	성공	[905885799]+3투사의 목걸이
2017-03-27 01:04:06	kobongsu:[데스나이트]	성공	[905885799]+4투사의 목걸이
2017-03-27 01:04:07	kobongsu:[데스나이트]	성공	[905885799]+3투사의 목걸이
2017-03-27 01:04:09	kobongsu:[데스나이트]	성공	[905885799]+2투사의 목걸이
2017-03-27 01:04:10	kobongsu:[데스나이트]	성공	[905885799]+3투사의 목걸이
2017-03-27 01:04:11	kobongsu:[데스나이트]	성공	[905885799]+4투사의 목걸이
2017-03-27 01:04:12	kobongsu:[데스나이트]	성공	[905885799]+5투사의 목걸이
2017-03-27 01:04:13	kobongsu:[데스나이트]	성공	[905885799]+6투사의 목걸이
2017-03-27 01:04:17	kobongsu:[데스나이트]	성공	[905885836]+6기백의 반지
2017-03-27 01:04:28	kobongsu:[데스나이트]	성공	[905885800]+7기백의 반지
2017-03-27 01:04:29	kobongsu:[데스나이트]	성공	[905885800]+8기백의 반지
2017-03-27 01:04:35	kobongsu:[데스나이트]	성공	[905885836]+7기백의 반지
2017-03-27 01:04:39	kobongsu:[데스나이트]	성공	[905885836]+8기백의 반지
2017-03-27 01:04:45	kobongsu:[데스나이트]	성공	[905885799]+7투사의 목걸이
2017-03-27 01:07:02	kobongsu:[데스나이트]	성공	[905885798]+7노예의 귀걸이
2017-03-27 01:07:07	kobongsu:[데스나이트]	성공	[905885798]+8노예의 귀걸이
2017-03-27 01:07:08	kobongsu:[데스나이트]	성공	[905885798]+9노예의 귀걸이
2017-03-27 01:07:10	kobongsu:[데스나이트]	성공	[905885799]+8투사의 목걸이
2017-03-27 01:07:24	kobongsu:[데스나이트]	성공	[905885799]+9투사의 목걸이
2017-03-27 01:07:43	kobongsu:[데스나이트]	성공	[905885800]+9기백의 반지
2017-03-27 01:07:47	kobongsu:[데스나이트]	성공	[905885836]+9기백의 반지
