2016-11-29 11:22:49	버리기	mbcznvx:[메티스]	[295543227]커츠의 수호 휘장
2016-11-29 11:22:49	버리기	mbcznvx:[메티스]	[295543230]은기사의 견갑
2016-11-29 11:22:55	줍기	mbcznvx:[냐냐냐]	[295543227]커츠의 수호 휘장
2016-11-29 11:22:56	줍기	mbcznvx:[냐냐냐]	[295543230]은기사의 견갑
2016-11-29 11:28:45	버리기	mbcznvx:[냐냐냐]	[295543227]커츠의 수호 휘장
