2016-09-28 01:45:14	접속 캐릭=메티스	계정=qkswkd2	IP=127.0.0.1
2016-09-28 02:20:53	접속 캐릭=메티스	계정=qkswkd2	IP=127.0.0.1
2016-09-28 02:29:12	종료 캐릭=메티스 계정=qkswkd2 IP=127.0.0.1
2016-09-28 02:29:16	접속 캐릭=메티스	계정=qkswkd2	IP=127.0.0.1
2016-09-28 02:29:29	종료 캐릭=메티스 계정=qkswkd2 IP=127.0.0.1
2016-09-28 02:29:33	접속 캐릭=메티스	계정=qkswkd2	IP=127.0.0.1
2016-09-28 02:39:11	종료 캐릭=메티스 계정=qkswkd2 IP=127.0.0.1
2016-09-28 04:42:16	접속 캐릭=메티스	계정=qkswkd2	IP=127.0.0.1
2016-09-28 05:10:56	접속 캐릭=메티스	계정=qkswkd2	IP=127.0.0.1
2016-09-28 05:20:19	접속 캐릭=메티스	계정=qkswkd2	IP=127.0.0.1
2016-09-28 05:22:49	접속 캐릭=메티스	계정=qkswkd2	IP=127.0.0.1
2016-09-28 06:08:40	접속 캐릭=메티스	계정=qkswkd2	IP=127.0.0.1
2016-09-28 06:15:59	접속 캐릭=메티스	계정=qkswkd2	IP=127.0.0.1
2016-09-28 12:29:42	접속 캐릭=메티스	계정=qkswkd2	IP=127.0.0.1
2016-09-28 18:05:38	접속 캐릭=메티스	계정=qkswkd2	IP=127.0.0.1
2016-09-28 18:48:53	접속 캐릭=메티스	계정=qkswkd2	IP=127.0.0.1
2016-09-28 18:54:01	접속 캐릭=메티스	계정=qkswkd2	IP=127.0.0.1
2016-09-28 18:54:22	종료 캐릭=메티스 계정=qkswkd2 IP=127.0.0.1
2016-09-28 19:14:31	접속 캐릭=메티스	계정=qkswkd2	IP=127.0.0.1
2016-09-28 19:19:13	접속 캐릭=메티스	계정=qkswkd2	IP=127.0.0.1
2016-09-28 19:45:15	접속 캐릭=메티스	계정=qkswkd2	IP=127.0.0.1
