2017-03-02 00:17:50	접속 캐릭=메티스	계정=guswns1	IP=121.181.1.213
2017-03-02 00:19:10	접속 캐릭=전사	계정=leegyuhwa	IP=220.116.185.70
2017-03-02 00:20:14	종료 캐릭=전사 계정=leegyuhwa IP=220.116.185.70
2017-03-02 00:21:01	접속 캐릭=전사	계정=leegyuhwa	IP=220.116.185.70
2017-03-02 00:22:03	종료 캐릭=전사 계정=leegyuhwa IP=220.116.185.70
2017-03-02 00:22:33	접속 캐릭=전사	계정=leegyuhwa	IP=220.116.185.70
2017-03-02 00:31:46	종료 캐릭=전사 계정=leegyuhwa IP=220.116.185.70
2017-03-02 00:31:53	접속 캐릭=요정	계정=leegyuhwa	IP=220.116.185.70
2017-03-02 00:39:34	종료 캐릭=메티스 계정=guswns1 IP=121.181.1.213
2017-03-02 00:40:05	접속 캐릭=메티스	계정=guswns1	IP=121.181.1.213
2017-03-02 00:41:41	종료 캐릭=메티스 계정=guswns1 IP=121.181.1.213
2017-03-02 00:42:13	접속 캐릭=테스트일	계정=guswns1	IP=121.181.1.213
2017-03-02 00:42:32	종료 캐릭=테스트일 계정=guswns1 IP=121.181.1.213
2017-03-02 00:42:34	접속 캐릭=메티스	계정=guswns1	IP=121.181.1.213
2017-03-02 01:27:54	접속 캐릭=메티스	계정=guswns1	IP=121.181.1.213
2017-03-02 12:39:04	접속 캐릭=메티스	계정=guswns1	IP=121.181.1.213
