2016-12-12 02:59:41	외침	[응]	ㅅㄷ
2016-12-12 02:59:42	외침	[응]	ㅋㅋ
2016-12-12 03:07:35	외침	[응]	zz
2016-12-12 03:08:22	외침	[응]	ㅋㅋ
2016-12-12 03:08:23	외침	[응]	ㄷㄷ
2016-12-12 04:33:00	외침	[응]	ㅋㅋ
2016-12-12 04:33:02	외침	[응]	대기중임
2016-12-12 06:01:46	외침	[응]	가볼까여
2016-12-12 06:01:58	외침	[응]	거기가
2016-12-12 06:01:59	외침	[응]	B팀이에요
2016-12-12 06:02:04	외침	[응]	여기가 C팀
2016-12-12 06:02:21	외침	[전사]	wj
2016-12-12 06:02:23	외침	[전사]	wj
2016-12-12 06:02:24	외침	[전사]	da
2016-12-12 06:02:25	외침	[응]	넹
2016-12-12 06:02:36	외침	[전사]	용기랑
2016-12-12 06:02:40	외침	[전사]	변신 뽕데스로
2016-12-12 06:02:44	외침	[응]	뿅데스가
2016-12-12 06:02:46	외침	[응]	몇번이에여?
2016-12-12 06:02:48	외침	[전사]	5641
2016-12-12 06:03:18	외침	[전사]	제가
2016-12-12 06:03:24	외침	[전사]	비팀이라는거죠?
2016-12-12 06:03:30	외침	[응]	넹
2016-12-12 06:03:32	외침	[응]	A팀꺼
2016-12-12 06:03:34	외침	[응]	뿌시러가죠
2016-12-12 06:03:38	외침	[응]	일단 쳐보세요
2016-12-12 06:03:41	외침	[응]	안되져
2016-12-12 06:03:42	외침	[응]	ㅋㅋㅋ
2016-12-12 06:03:44	외침	[응]	지금 시작안해서
2016-12-12 06:03:45	외침	[응]	못뿌셔요
2016-12-12 06:04:06	외침	[응]	ㅅ;ㅈ
2016-12-12 06:04:07	외침	[응]	싲가할께여
2016-12-12 06:04:10	외침	[전사]	네 ㅎ
2016-12-12 06:04:25	외침	[전사]	팁ㅋ ㅋㅋ
2016-12-12 06:04:28	외침	[응]	그거
2016-12-12 06:04:29	외침	[응]	수정해야되여ㅛ
2016-12-12 06:04:30	외침	[응]	ㅋㅋㅋㅋㅋㅋㅋㅋㅋㅋㅋ
2016-12-12 06:04:31	외침	[전사]	네 ㅋㅋㅋㅋ
2016-12-12 06:04:40	외침	[응]	보상
2016-12-12 06:04:41	외침	[응]	아데나 1원
2016-12-12 06:04:42	외침	[응]	ㅋㅋㅋㅋㅋㅋ
2016-12-12 06:05:05	외침	[전사]	만약
2016-12-12 06:05:11	외침	[전사]	저렇게하면
2016-12-12 06:05:15	외침	[전사]	에이팀은
2016-12-12 06:05:16	외침	[전사]	끝?
2016-12-12 06:05:19	외침	[응]	여기
2016-12-12 06:05:21	외침	[응]	버그고쳐야겠네요
2016-12-12 06:05:24	외침	[응]	원래 A팀 사령탑뿌시면
2016-12-12 06:05:25	외침	[응]	A팀 전원
2016-12-12 06:05:29	외침	[응]	마을로 텔가야하는데
2016-12-12 06:05:30	외침	[응]	저 안가고있네요
2016-12-12 06:05:37	외침	[전사]	영자케릭이라 
2016-12-12 06:05:39	외침	[전사]	그런거 아님?ㅎ
2016-12-12 06:05:40	외침	[응]	아네여 ㅋㅋ
2016-12-12 06:05:43	외침	[응]	다 텔시켜야해요
2016-12-12 06:05:53	외침	[응]	이거
2016-12-12 06:05:54	외침	[응]	뿌셔야해요
2016-12-12 06:05:56	외침	[전사]	아니
2016-12-12 06:05:56	외침	[응]	안뿌시면 저기 못뿌심
2016-12-12 06:06:00	외침	[전사]	칼질
2016-12-12 06:06:01	외침	[전사]	안됨?
2016-12-12 06:06:10	외침	[응]	저거뿌셔야 이게깨져요
2016-12-12 06:06:16	외침	[전사]	오
2016-12-12 06:06:17	외침	[전사]	ㅋㅋ
2016-12-12 06:06:20	외침	[전사]	이거
2016-12-12 06:06:22	외침	[전사]	확인하려고
2016-12-12 06:06:24	외침	[응]	ㅋㅋㅋㅋ
2016-12-12 06:06:34	외침	[전사]	칼질
2016-12-12 06:06:35	외침	[전사]	안됨
2016-12-12 06:06:44	외침	[응]	어디칼질이염?
2016-12-12 06:06:48	외침	[전사]	ㄴㄴ
2016-12-12 06:07:03	외침	[응]	어
2016-12-12 06:07:04	외침	[응]	뭐지
2016-12-12 06:07:07	외침	[응]	버그가 계속있네여
2016-12-12 06:07:08	외침	[응]	하...
2016-12-12 06:07:13	외침	[전사]	어떤거요?ㅎ
2016-12-12 06:07:18	외침	[응]	이게 사령탑 2개를 뿌시면
2016-12-12 06:07:21	외침	[응]	자동으로
2016-12-12 06:07:24	외침	[응]	공성전이 끝나고
2016-12-12 06:07:28	외침	[응]	30초뒤에 텔탄다는 메세지가
2016-12-12 06:07:35	외침	[전사]	ㅋㅋㅋㅋㅋㅋㅋㅋㅋㅋㅋㅋㅋㅋ
2016-12-12 06:07:35	외침	[응]	아
2016-12-12 06:07:36	외침	[응]	30초뒤에
2016-12-12 06:07:37	외침	[응]	간다는 메세지
2016-12-12 06:07:38	외침	[응]	갔어요
2016-12-12 06:07:39	외침	[응]	?
2016-12-12 06:07:40	외침	[전사]	네
2016-12-12 06:07:42	외침	[전사]	근데
2016-12-12 06:07:44	외침	[응]	아 난 이긴팀이
2016-12-12 06:07:47	외침	[응]	아니라서 안뜬거구나
2016-12-12 06:07:58	외침	[전사]	왜여기로옴?ㅋ
2016-12-12 06:08:02	외침	[응]	좌표를
2016-12-12 06:08:04	외침	[응]	컴파일을
2016-12-12 06:08:05	외침	[응]	안했어요
2016-12-12 06:08:06	외침	[응]	ㅋㅋㅋㅋㅋㅋ
2016-12-12 06:08:06	외침	[전사]	마을로 셋팅 하셔야될듯 ㅎㅎ
2016-12-12 06:08:08	외침	[응]	기란마을로 가게해놨는데
2016-12-12 06:08:12	외침	[응]	빌드를
2016-12-12 06:08:13	외침	[응]	안했어여
2016-12-12 06:08:14	외침	[응]	ㅋㅋㅋㅋㅋㅋㅋ
2016-12-12 06:08:15	외침	[전사]	그래도
2016-12-12 06:08:17	외침	[전사]	많이 했네요 ㅎㅎ
2016-12-12 06:08:19	외침	[응]	네
2016-12-12 06:08:20	외침	[전사]	다시한번
2016-12-12 06:08:23	외침	[전사]	미니공성
2016-12-12 06:08:25	외침	[전사]	해보세요
2016-12-12 06:08:39	외침	[응]	아
2016-12-12 06:08:43	외침	[응]	이게 제거가 안되네
2016-12-12 06:08:48	외침	[응]	버그 2개
2016-12-12 06:08:59	외침	[전사]	그러네요
2016-12-12 06:09:06	외침	[응]	그냥 바로 뿌셔지게해야겠따
2016-12-12 06:09:18	외침	[전사]	그전에있던
2016-12-12 06:09:19	외침	[전사]	탑이
2016-12-12 06:09:22	외침	[응]	넹
2016-12-12 06:09:24	외침	[응]	남아있네요
2016-12-12 06:09:24	외침	[전사]	그대로
2016-12-12 06:09:26	외침	[전사]	있어서
2016-12-12 06:09:31	외침	[전사]	그게 문제고
2016-12-12 06:09:42	외침	[응]	일단
2016-12-12 06:09:45	외침	[응]	있는건 없앴어요
2016-12-12 06:09:50	외침	[응]	그다음에
2016-12-12 06:09:52	외침	[응]	텔 팅기는거
2016-12-12 06:09:59	외침	[응]	그거 수정해야할듯해요
2016-12-12 06:10:02	외침	[전사]	네
2016-12-12 06:10:04	외침	[전사]	확인좀
2016-12-12 06:10:16	외침	[전사]	만약
2016-12-12 06:10:17	외침	[전사]	여기서
2016-12-12 06:10:19	외침	[전사]	죽으면
2016-12-12 06:10:23	외침	[전사]	어떨게
2016-12-12 06:10:25	외침	[전사]	떻게
2016-12-12 06:10:26	외침	[전사]	됨?
2016-12-12 06:10:29	외침	[전사]	마을로가짐?
2016-12-12 06:10:34	외침	[전사]	아님 이곳에서
2016-12-12 06:10:36	외침	[전사]	살아남?
2016-12-12 06:10:45	외침	[응]	마을로가지네여
2016-12-12 06:10:49	외침	[전사]	죽으면 끝이네요 ㅎㅎ
2016-12-12 06:10:53	외침	[응]	넹 ㅋㅋ
2016-12-12 06:10:57	외침	[응]	공성전은
2016-12-12 06:10:58	외침	[전사]	아까
2016-12-12 06:10:59	외침	[응]	어디서 살아나나요?
2016-12-12 06:11:00	외침	[전사]	그쪽으로
2016-12-12 06:11:01	외침	[전사]	가봐요
2016-12-12 06:11:29	외침	[전사]	만약
2016-12-12 06:11:32	외침	[전사]	이렇게되면
2016-12-12 06:11:34	외침	[전사]	한번
2016-12-12 06:11:35	외침	[전사]	죽으면
2016-12-12 06:11:39	외침	[전사]	다시올수가
2016-12-12 06:11:42	외침	[전사]	없잖아요?
2016-12-12 06:11:43	외침	[응]	넹
2016-12-12 06:11:53	외침	[전사]	지금 여기가
2016-12-12 06:11:57	외침	[전사]	노멀존인데
2016-12-12 06:12:02	외침	[전사]	죽으면
2016-12-12 06:12:08	외침	[전사]	렙따하니까
2016-12-12 06:12:16	외침	[전사]	컴백존으로
2016-12-12 06:12:20	외침	[전사]	바꿀수있을까요?
2016-12-12 06:12:23	외침	[응]	존은 못바꿔요
2016-12-12 06:12:28	외침	[응]	존은 클라에서 지정해준거라
2016-12-12 06:12:31	외침	[응]	근데 여기서 죽으면
2016-12-12 06:12:32	외침	[응]	패널티 없다
2016-12-12 06:12:36	외침	[응]	라는걸 만들순있어염
2016-12-12 06:12:39	외침	[응]	ㅓ그건
2016-12-12 06:12:42	외침	[응]	나비켓에서해도 
2016-12-12 06:12:43	외침	[응]	되염
2016-12-12 06:12:46	외침	[전사]	그럼
2016-12-12 06:12:53	외침	[전사]	죽이는
2016-12-12 06:12:59	외침	[전사]	알림은 뜨게끔
2016-12-12 06:13:03	외침	[전사]	하고혹시
2016-12-12 06:13:14	외침	[전사]	일반 킬데스하고
2016-12-12 06:13:20	외침	[전사]	여기 킬데스하고
2016-12-12 06:13:24	외침	[전사]	중복안되게 할수있나요?
2016-12-12 06:13:27	외침	[응]	킬데스가 뭐죠?
2016-12-12 06:13:33	외침	[전사]	사람을 죽이면
2016-12-12 06:13:37	외침	[전사]	 /누구
2016-12-12 06:13:43	외침	[전사]	아디치면
2016-12-12 06:13:44	외침	[응]	넹
2016-12-12 06:13:45	외침	[전사]	킬데스가
2016-12-12 06:13:47	외침	[전사]	나오거든요
2016-12-12 06:13:49	외침	[응]	넹넹
2016-12-12 06:13:56	외침	[전사]	아니면
2016-12-12 06:13:59	외침	[전사]	이곳에서
2016-12-12 06:14:01	외침	[전사]	킬을 하면
2016-12-12 06:14:07	외침	[전사]	징표같은걸
2016-12-12 06:14:09	외침	[전사]	지급해서
2016-12-12 06:14:13	외침	[전사]	그징표로만
2016-12-12 06:14:18	외침	[전사]	이용할수있는상점을
2016-12-12 06:14:20	외침	[전사]	만드는거죠 ㅎㅎ
2016-12-12 06:14:32	외침	[응]	오호
2016-12-12 06:14:40	외침	[응]	일단 그럼 죽으면
2016-12-12 06:14:42	외침	[응]	어찌해요
2016-12-12 06:14:44	외침	[응]	여기서 살아나게하나여?
2016-12-12 06:14:45	외침	[전사]	죽으면
2016-12-12 06:15:04	외침	[전사]	여기가
2016-12-12 06:15:06	외침	[전사]	비팀
2016-12-12 06:15:08	외침	[전사]	베이스가
2016-12-12 06:15:10	외침	[응]	아하
2016-12-12 06:15:11	외침	[전사]	되는거죠
2016-12-12 06:15:12	외침	[응]	넹
2016-12-12 06:15:18	외침	[전사]	그래야
2016-12-12 06:15:21	외침	[전사]	미니공성이
2016-12-12 06:15:23	외침	[전사]	오래가죠 ㅎ
2016-12-12 06:15:25	외침	[전사]	만약
2016-12-12 06:15:29	외침	[전사]	한번죽고
2016-12-12 06:15:32	외침	[전사]	베르되면
2016-12-12 06:15:34	외침	[응]	맞아여 ㅋㅋㅋ
2016-12-12 06:15:36	외침	[전사]	다시 오고싶어도
2016-12-12 06:15:38	외침	[전사]	못오니까
2016-12-12 06:15:41	외침	[전사]	재미를 못느낌
2016-12-12 06:15:44	외침	[응]	ㅋㅋㅋ그러네여
2016-12-12 06:15:54	외침	[전사]	그래도
2016-12-12 06:15:55	외침	[전사]	바로
2016-12-12 06:15:56	외침	[전사]	이렇게
2016-12-12 06:15:59	외침	[전사]	만들어서
2016-12-12 06:16:01	외침	[전사]	솔직히
2016-12-12 06:16:04	외침	[전사]	저 놀랬어요 ㅎㅎ
2016-12-12 06:16:10	외침	[응]	ㅋㅋㅋㅋ
2016-12-12 06:16:16	외침	[전사]	재혁님이
2016-12-12 06:16:18	외침	[전사]	탐남 ㅋㅋ
2016-12-12 06:16:24	외침	[응]	입금만하면
2016-12-12 06:16:26	외침	[응]	도와드리죠
2016-12-12 06:16:28	외침	[응]	계속
2016-12-12 06:16:28	외침	[응]	ㅋㅋㅋㅋ
2016-12-12 06:16:33	외침	[전사]	아니 그런것도 있지만
2016-12-12 06:16:44	외침	[전사]	한번 밥이나 한끼하실래요?ㅎㅎ
2016-12-12 06:16:51	외침	[전사]	술좋아하시면
2016-12-12 06:16:55	외침	[전사]	술도좋고 ㅋㅋ
2016-12-12 06:17:06	외침	[응]	ㅋㅋㅋㅋ
2016-12-12 06:17:07	외침	[전사]	하고싶은 얘기가 많습니다 ㅎㅎ
2016-12-12 06:17:11	외침	[전사]	이게
2016-12-12 06:17:11	외침	[응]	일단 저 취업은 하구여 ㅋㅋ ㅠ
2016-12-12 06:17:12	외침	[응]	넹
2016-12-12 06:17:17	외침	[전사]	온라인상으로만
2016-12-12 06:17:20	외침	[전사]	대화하고
2016-12-12 06:17:26	외침	[전사]	관계유지하려고하면
2016-12-12 06:17:27	외침	[전사]	분면
2016-12-12 06:17:29	외침	[전사]	분명
2016-12-12 06:17:37	외침	[전사]	얇게 생각할수도있어요
2016-12-12 06:17:43	외침	[응]	ㅋㅋㅋ일단 지금은
2016-12-12 06:17:44	외침	[응]	프리랜서니까요
2016-12-12 06:17:46	외침	[전사]	근데 좀 돈독하게
2016-12-12 06:17:48	외침	[전사]	만드려면
2016-12-12 06:17:50	외침	[전사]	이번차
2016-12-12 06:17:52	외침	[전사]	오픈하고나서
2016-12-12 06:17:58	외침	[전사]	한번 만나봐야겠음 ㅎ
2016-12-12 06:17:59	외침	[응]	취업하기전까지 용돈벌이좀 하려구하는중이에요 ㅋㅋ
2016-12-12 06:18:03	외침	[응]	음
2016-12-12 06:18:04	외침	[전사]	그러니까
2016-12-12 06:18:07	외침	[응]	넹
2016-12-12 06:18:09	외침	[전사]	그 벌이 하게끔
2016-12-12 06:18:10	외침	[전사]	해줄게요 ㅎㅎ
2016-12-12 06:18:13	외침	[응]	넹 ㅋㅋ
2016-12-12 06:18:28	외침	[전사]	이번차 오픈끝나고
2016-12-12 06:18:30	외침	[전사]	한번 봐요 ㅎㅎ
2016-12-12 06:18:37	외침	[전사]	제가 그쪽으로 갈게요 ㅎㅎ
2016-12-12 06:18:39	외침	[전사]	저희 어머니가
2016-12-12 06:18:40	외침	[전사]	대전에
2016-12-12 06:18:42	외침	[전사]	계심
2016-12-12 06:18:43	외침	[전사]	ㅎㅎ
2016-12-12 06:18:46	외침	[응]	일단 제가 사람 함부로 보진 않는데
2016-12-12 06:18:47	외침	[응]	좀더
2016-12-12 06:18:53	외침	[응]	친밀해지면 그때
2016-12-12 06:18:54	외침	[응]	뵙죠 ㅋㅋ
2016-12-12 06:19:00	외침	[전사]	그러니까요 ㅎㅎ
2016-12-12 06:19:15	외침	[전사]	일단 문제점
2016-12-12 06:19:25	외침	[전사]	발견됐고
2016-12-12 06:19:34	외침	[전사]	보안해서
2016-12-12 06:19:35	외침	[응]	넹넹
2016-12-12 06:19:45	외침	[전사]	참
2016-12-12 06:19:46	외침	[전사]	그리고
2016-12-12 06:19:48	외침	[응]	넹
2016-12-12 06:19:49	외침	[전사]	시작되면
2016-12-12 06:20:00	외침	[전사]	1차 탑쪽으로
2016-12-12 06:20:04	외침	[전사]	이동되는데
2016-12-12 06:20:05	외침	[전사]	기거보다
2016-12-12 06:20:09	외침	[전사]	이쪽에서
2016-12-12 06:20:10	외침	[전사]	시작하는게
2016-12-12 06:20:14	외침	[전사]	좋을거 같은데요
2016-12-12 06:20:19	외침	[응]	그럼 시작위치를
2016-12-12 06:20:21	외침	[응]	이쪽으로할까요?
2016-12-12 06:20:25	외침	[전사]	각팀마다
2016-12-12 06:20:26	외침	[응]	넹
2016-12-12 06:20:28	외침	[전사]	자기 베이스쪽에서
2016-12-12 06:20:30	외침	[응]	넹
2016-12-12 06:20:31	외침	[전사]	시작하는겁니다 ㅎ
2016-12-12 06:20:33	외침	[응]	넹넹 ㅋㅋ
2016-12-12 06:20:35	외침	[전사]	그리고
2016-12-12 06:20:39	외침	[전사]	킬할때마다
2016-12-12 06:20:43	외침	[전사]	징표
2016-12-12 06:20:48	외침	[전사]	훈장이라
2016-12-12 06:20:50	외침	[전사]	해두죠 ㅎ
2016-12-12 06:21:03	외침	[응]	넹 ㅋㅋ
2016-12-12 06:21:06	외침	[전사]	미니공성보다는
2016-12-12 06:21:11	외침	[전사]	리그오브레전드
2016-12-12 06:21:12	외침	[전사]	어떰?
2016-12-12 06:21:13	외침	[전사]	ㅎㅎ
2016-12-12 06:21:18	외침	[응]	ㅋㅋㅋㅋ알람 수정할게여 그럼
2016-12-12 06:21:22	외침	[전사]	네 ㅎㅎ
2016-12-12 06:21:31	외침	[전사]	그리고 이쪽에서 베이스로
2016-12-12 06:21:32	외침	[전사]	하고
2016-12-12 06:21:34	외침	[전사]	게임이
2016-12-12 06:21:37	외침	[전사]	종료되기전까지는
2016-12-12 06:21:45	외침	[전사]	자기베이스에서 부활되게하면
2016-12-12 06:21:49	외침	[전사]	될거같네요
2016-12-12 06:22:00	외침	[응]	넵
2016-12-12 06:22:06	외침	[전사]	촐기좀
2016-12-12 06:22:45	외침	[전사]	그리고
2016-12-12 06:22:51	외침	[전사]	잠시만요
2016-12-12 06:23:30	외침	[전사]	2차가
2016-12-12 06:23:37	외침	[전사]	2차탑이
2016-12-12 06:23:49	외침	[전사]	이정도에있어야
2016-12-12 06:23:50	외침	[전사]	좀
2016-12-12 06:23:51	외침	[전사]	부시기
2016-12-12 06:23:55	외침	[전사]	힘들어질거에요
2016-12-12 06:23:57	외침	[응]	여기로
2016-12-12 06:23:58	외침	[응]	수정할까요?
2016-12-12 06:23:58	외침	[전사]	네
2016-12-12 06:24:22	외침	[응]	다른곳 2차도
2016-12-12 06:24:24	외침	[전사]	네
2016-12-12 06:24:25	외침	[응]	위치좀 부탁드려요
2016-12-12 06:24:31	외침	[전사]	스톰
2016-12-12 06:24:34	외침	[전사]	워크좀
2016-12-12 06:24:59	전체	[전사]	이정도면
2016-12-12 06:25:10	외침	[전사]	레벨좀 ㅋ
2016-12-12 06:25:15	외침	[전사]	전창도
2016-12-12 06:25:16	외침	[전사]	안됨
2016-12-12 06:25:17	외침	[전사]	ㅋㅋㅋ
2016-12-12 06:25:20	외침	[응]	레벨
2016-12-12 06:25:22	외침	[응]	어케올리지
2016-12-12 06:25:26	외침	[전사]	그냥
2016-12-12 06:25:37	외침	[전사]	마을
2016-12-12 06:25:38	외침	[전사]	갔다올게요
2016-12-12 06:25:39	외침	[전사]	ㅎㅎ
2016-12-12 06:25:40	외침	[응]	넹
2016-12-12 06:25:57	전체	[전사]	소환좀
2016-12-12 06:26:18	전체	[전사]	소환좀
2016-12-12 06:27:12	외침	[응]	여기쯤으로
2016-12-12 06:27:13	외침	[응]	할까여
2016-12-12 06:27:17	외침	[전사]	네
2016-12-12 06:29:12	외침	[전사]	아
2016-12-12 06:29:13	외침	[전사]	그리고
2016-12-12 06:29:23	외침	[전사]	입장되면
2016-12-12 06:29:27	외침	[전사]	같은팀들은
2016-12-12 06:29:29	외침	[전사]	파티상태가
2016-12-12 06:29:31	외침	[전사]	가능하나요?
2016-12-12 06:29:43	외침	[응]	입장되는순간에 파티요?
2016-12-12 06:29:52	외침	[응]	테스트는 안해봤는데 구현해봐야죠
2016-12-12 06:30:10	외침	[전사]	그래야
2016-12-12 06:30:11	외침	[전사]	팀인지
2016-12-12 06:30:12	외침	[전사]	아닌지
2016-12-12 06:30:17	외침	[응]	넹
2016-12-12 06:30:19	외침	[전사]	알수있을거라서
2016-12-12 06:30:21	외침	[전사]	아니면
2016-12-12 06:30:32	외침	[전사]	마크표시는
2016-12-12 06:30:35	외침	[전사]	힘들겠죠?
2016-12-12 06:30:46	외침	[응]	마크표시는
2016-12-12 06:30:49	외침	[응]	엠블럼말씀하시는거죠?
2016-12-12 06:30:55	외침	[응]	아마 혈맹때매
2016-12-12 06:30:59	외침	[응]	지저분해질거같아여
2016-12-12 06:31:09	외침	[전사]	그럼
2016-12-12 06:31:21	외침	[응]	패킷좀
2016-12-12 06:31:28	외침	[응]	파티
2016-12-12 06:31:30	외침	[응]	어케하는거죠?
2016-12-12 06:31:37	외침	[전사]	 /초대
2016-12-12 06:31:38	외침	[응]	명령어가 뭐죠 /파티인가여
2016-12-12 07:08:15	외침	[응]	test 14 1
2016-12-12 07:21:04	외침	[응]	test 14 1
2016-12-12 15:32:11	외침	[응]	구현은
2016-12-12 15:32:12	외침	[응]	다되어있구여
2016-12-12 15:32:50	외침	[응]	이런걸로 변경도 가능해요
2016-12-12 15:32:59	외침	[응]	죽어서 장비를 떨구면 복구권으로 복구도 가능하구
2016-12-12 15:33:02	외침	[응]	미니공성도 있어요
2016-12-12 15:33:03	외침	[다므스]	아하
2016-12-12 15:33:15	외침	[다므스]	이여..
2016-12-12 15:33:35	외침	[응]	여기에 탑들 뿌시면
2016-12-12 15:33:44	외침	[응]	보상받을수있게
2016-12-12 15:33:53	외침	[응]	필드시스템도
2016-12-12 15:33:54	외침	[다므스]	아하
2016-12-12 15:33:54	외침	[응]	구현되있어요
2016-12-12 15:34:00	외침	[응]	레이드는 물론 다되구
2016-12-12 15:34:12	외침	[다므스]	프리 패스 상자는
2016-12-12 15:34:15	외침	[응]	그런건
2016-12-12 15:34:16	외침	[응]	없애야죠
2016-12-12 15:34:19	외침	[다므스]	아하
2016-12-12 15:34:21	외침	[응]	ㅋㅋㅋ
2016-12-12 15:34:24	외침	[응]	이건 서버에 입맛에맞게
2016-12-12 15:34:26	외침	[응]	바꿔야해요
2016-12-12 15:34:33	외침	[다므스]	글쿤요
2016-12-12 15:35:17	외침	[다므스]	아
2016-12-12 15:35:25	외침	[다므스]	스킨 잘못 깔아서
2016-12-12 15:35:28	외침	[다므스]	견갑 휘장 
2016-12-12 15:35:31	외침	[다므스]	못푸네
2016-12-12 15:35:32	외침	[다므스]	슬롯
2016-12-12 15:35:34	외침	[응]	ㅋㅋㅋㅋㅋㅋ
2016-12-12 15:35:35	외침	[다므스]	ㅡㅡ리니지 다시
2016-12-12 15:35:36	외침	[다므스]	깔아야되네
2016-12-12 15:35:48	전체	[다므스]	무인상점은
2016-12-12 15:35:52	외침	[응]	견갑 휘장은 다 뚤려있어요
2016-12-12 15:35:52	외침	[다므스]	무인상점은
2016-12-12 15:36:19	외침	[응]	ㅋㅋ
2016-12-12 15:36:25	외침	[다므스]	무인상점
2016-12-12 15:36:27	외침	[다므스]	켜바욤
2016-12-12 15:36:27	외침	[응]	5만에 9현자 사가세요~
2016-12-12 15:36:47	외침	[토스]	잘되고있죠
2016-12-12 15:36:50	외침	[다므스]	네?
2016-12-12 15:36:53	외침	[토스]	무인상점
2016-12-12 15:36:55	외침	[다므스]	;;
2016-12-12 15:36:55	외침	[토스]	제껀 못들어가요 ㅋㅋ
2016-12-12 15:36:57	외침	[다므스]	안되는데
2016-12-12 15:37:02	외침	[토스]	네?
2016-12-12 15:37:07	외침	[토스]	이거
2016-12-12 15:37:24	외침	[다므스]	되네
2016-12-12 15:37:27	외침	[다므스]	일일이 하나식
2016-12-12 15:37:29	외침	[다므스]	켜야되요?
2016-12-12 15:37:32	외침	[토스]	이건
2016-12-12 15:37:32	외침	[다므스]	영자상점은
2016-12-12 15:37:34	외침	[토스]	무인상점이죠
2016-12-12 15:37:36	외침	[토스]	저런거 배치는
2016-12-12 15:37:39	외침	[토스]	또 따로할수있어여
2016-12-12 15:37:42	외침	[다므스]	아..
2016-12-12 15:37:43	외침	[다므스]	이렇게 
2016-12-12 15:37:44	외침	[다므스]	배치가
2016-12-12 15:37:45	외침	[다므스]	되는군아
2016-12-12 15:37:47	외침	[다므스]	무인으로
2016-12-12 15:37:51	외침	[토스]	이건 개인이
2016-12-12 15:37:53	외침	[토스]	하려고할떄 하는거에여 ㅋㅋ
2016-12-12 15:37:55	외침	[다므스]	아하
2016-12-12 15:37:57	외침	[다므스]	영자상점은여
2016-12-12 15:38:19	외침	[토스]	켰어요
2016-12-12 15:38:27	외침	[토스]	나왔쬬
2016-12-12 15:42:58	외침	[토스]	발라카스 레이드보러가실래여
2016-12-12 15:43:02	외침	[다므스]	네
2016-12-12 15:43:30	외침	[토스]	오세염
2016-12-12 15:43:42	외침	[토스]	좀 쌔여
2016-12-12 15:43:46	외침	[토스]	제가 죽일테니
2016-12-12 15:43:49	외침	[토스]	죽어서 구경하세염
2016-12-12 15:43:49	외침	[다므스]	네
2016-12-12 15:43:55	외침	[다므스]	소환으로
2016-12-12 15:43:58	외침	[다므스]	어짜피 해야
2016-12-12 15:43:58	외침	[다므스]	도ㅓㅣ는거
2016-12-12 15:43:59	외침	[다므스]	아닌가
2016-12-12 15:44:01	외침	[토스]	아네요
2016-12-12 15:44:03	외침	[토스]	기다리면
2016-12-12 15:44:04	외침	[토스]	나와요
2016-12-12 15:44:06	외침	[다므스]	아
2016-12-12 15:44:12	외침	[토스]	위에 대사
2016-12-12 15:44:14	외침	[토스]	보이시죠
2016-12-12 15:44:15	외침	[다므스]	오
2016-12-12 15:44:35	외침	[다므스]	워따
2016-12-12 15:44:47	외침	[토스]	이렇게생겼어요
2016-12-12 15:44:52	외침	[다므스]	이야..
2016-12-12 15:45:07	외침	[토스]	미티어도 쏘는데 확률이라
2016-12-12 15:45:11	외침	[다므스]	아하
2016-12-12 15:45:23	외침	[다므스]	접속기는 1114에요?
2016-12-12 15:45:27	외침	[토스]	1124에요
2016-12-12 15:45:31	외침	[다므스]	아하
2016-12-12 15:45:39	외침	[토스]	죽일까여?
2016-12-12 15:45:41	외침	[다므스]	네
2016-12-12 15:45:59	외침	[다므스]	워어
2016-12-12 15:46:10	외침	[다므스]	멋ㅈㅣ네..
2016-12-12 15:46:13	외침	[토스]	ㅋㅋㅋ
2016-12-12 15:46:18	외침	[다므스]	2일 출석
2016-12-12 15:46:19	외침	[다므스]	하면
2016-12-12 15:46:20	외침	[토스]	이제 마을로가실꺼에여
2016-12-12 15:46:21	외침	[다므스]	드슬주는뎁쇼..
2016-12-12 15:46:23	외침	[토스]	저거는
2016-12-12 15:46:26	외침	[토스]	수정하면되요
2016-12-12 15:46:27	외침	[토스]	나비켓에서
2016-12-12 15:46:34	외침	[다므스]	저게
2016-12-12 15:46:43	외침	[다므스]	저게
2016-12-12 15:46:45	외침	[토스]	네
2016-12-12 15:46:46	외침	[다므스]	나비켓에서 
2016-12-12 15:46:50	외침	[다므스]	수정하는가바요
2016-12-12 15:46:51	외침	[토스]	넹
2016-12-12 15:46:55	외침	[토스]	나비켓에서 일차별로
2016-12-12 15:46:56	외침	[다므스]	수정이되는군아..
2016-12-12 15:46:57	외침	[토스]	수정가능해요
2016-12-12 15:46:59	외침	[다므스]	아..
2016-12-12 15:47:45	외침	[다므스]	왜
2016-12-12 15:47:49	외침	[다므스]	강촐이 안먹어지지;
2016-12-12 15:47:56	외침	[토스]	잉
2016-12-12 15:48:16	외침	[다므스]	재접하니되넹
2016-12-12 15:48:26	외침	[다므스]	로봇은
2016-12-12 15:48:28	외침	[다므스]	어때요?
2016-12-12 15:48:35	외침	[토스]	로봇은 있긴한데 어떤팩이던지
2016-12-12 15:48:38	외침	[토스]	로봇쓰면 불안정해서
2016-12-12 15:48:41	외침	[다므스]	아하
2016-12-12 15:48:44	외침	[다므스]	여긴
2016-12-12 15:48:45	외침	[다므스]	어떤 
2016-12-12 15:48:46	외침	[다므스]	로봇들이
2016-12-12 15:48:47	외침	[다므스]	있나요
2016-12-12 15:48:53	외침	[토스]	로봇 소환했어요
2016-12-12 15:49:03	외침	[토스]	사냥하는 로봇도
2016-12-12 15:49:05	외침	[토스]	어디보내긴했는데
2016-12-12 15:49:09	외침	[토스]	어디서 뭐하는지 ㅋㅋ
2016-12-12 15:49:13	외침	[다므스]	;;
2016-12-12 15:49:14	외침	[다므스]	ㅋㅋㅋㅋㅋ
2016-12-12 15:49:17	외침	[다므스]	필드 하는 로봇은
2016-12-12 15:49:19	외침	[다므스]	없나요
2016-12-12 15:49:21	외침	[토스]	여기서 사냥하네요
2016-12-12 15:49:32	외침	[다므스]	아하
2016-12-12 15:49:47	외침	[토스]	어딘가에서
2016-12-12 15:49:49	외침	[토스]	싸우고있긴해요 ㅋㅋ
2016-12-12 15:49:49	외침	[다므스]	이게 근데 
2016-12-12 15:49:53	외침	[다므스]	죽고 나면
2016-12-12 15:49:56	외침	[다므스]	리스 되면 강촐이
2016-12-12 15:49:58	외침	[다므스]	안먹어지네
2016-12-12 15:50:03	외침	[토스]	아 진짜여?
2016-12-12 15:50:09	외침	[다므스]	이제되넹
2016-12-12 15:50:12	외침	[토스]	강촐만
2016-12-12 15:50:14	외침	[토스]	안먹어지나요?
2016-12-12 15:50:18	외침	[다므스]	네 일단 강촐이
2016-12-12 15:50:20	외침	[다므스]	안되네염
2016-12-12 15:50:23	외침	[다므스]	죽어
2016-12-12 15:50:23	외침	[다므스]	볼게여
2016-12-12 15:50:46	전체	[다므스]	또되네요
2016-12-12 15:50:53	외침	[토스]	또 되염?
2016-12-12 15:50:57	외침	[다므스]	네
2016-12-12 15:51:01	외침	[토스]	신기하네...
2016-12-12 15:53:33	전체	[다므스]	ㅇ
2016-12-12 15:53:36	전체	[다므스]	왜 인벤창이
2016-12-12 15:53:47	전체	[다므스]	아템 창이 
2016-12-12 15:53:50	전체	[토스]	네
2016-12-12 15:53:54	전체	[다므스]	중국어뜨지
2016-12-12 15:53:57	전체	[다므스]	``
2016-12-12 15:54:01	전체	[토스]	어떤 아이템이
2016-12-12 15:54:03	전체	[토스]	중국어로 뜨세여
2016-12-12 15:54:04	전체	[다므스]	전부다욤
2016-12-12 15:54:11	전체	[토스]	오잉?
2016-12-12 15:54:20	전체	[토스]	아이템 이름이 중국어는 클라이언트 문제같은데요;;
2016-12-12 15:54:27	외침	[다므스]	렙
2016-12-12 15:54:32	외침	[다므스]	85 좀만들어주세여
2016-12-12 15:54:35	외침	[토스]	리스하고
2016-12-12 15:54:37	외침	[토스]	10초뒤에
2016-12-12 15:54:38	외침	[토스]	들어와주세여
2016-12-12 15:54:39	외침	[다므스]	네
2016-12-12 15:55:03	외침	[다므스]	잉
2016-12-12 15:55:04	외침	[다므스]	;;
2016-12-12 15:55:05	외침	[다므스]	또
2016-12-12 15:55:05	외침	[다므스]	ㅂㅈ어
2016-12-12 15:55:05	외침	[다므스]	021ㅇ0
2016-12-12 15:55:06	외침	[다므스]	012
2016-12-12 15:55:06	외침	[다므스]	ㅇ=02ㅇ=
2016-12-12 15:55:09	외침	[토스]	뭐지
2016-12-12 15:58:47	외침	[다므스]	ㅂㅈㅇ
2016-12-12 16:00:31	외침	[다므스]	아하
2016-12-12 16:01:02	외침	[다므스]	장비
2016-12-12 16:01:04	외침	[다므스]	벗겨지네염..
2016-12-12 16:01:18	외침	[토스]	어떤게욤??
2016-12-12 16:01:22	외침	[다므스]	이변신을하면
2016-12-12 16:01:25	외침	[다므스]	벨트모자 부츠
2016-12-12 16:01:27	외침	[다므스]	귀걸이
2016-12-12 16:01:34	외침	[토스]	바포라서그런가
2016-12-12 16:01:40	외침	[다므스]	아녀욤
2016-12-12 16:01:43	외침	[다므스]	안벗겨저욤 
2016-12-12 16:01:58	외침	[토스]	원래 안벗겨져요?
2016-12-12 16:02:00	외침	[다므스]	네
2016-12-12 16:02:05	외침	[토스]	몇랩변신이죠
2016-12-12 16:04:25	외침	[다므스]	오잉
2016-12-12 16:04:27	외침	[다므스]	결계가..``
2016-12-12 16:04:47	외침	[토스]	결계는 
2016-12-12 16:04:57	외침	[토스]	결계는
2016-12-12 16:05:00	외침	[토스]	넣어드릴께요 배치만하면되요
2016-12-12 16:05:05	외침	[다므스]	아하
2016-12-12 16:07:06	전체	[다므스]	인첸률
2016-12-12 16:07:11	전체	[다므스]	매너ㅈ저에서 100퍼좀
2016-12-12 16:08:40	외침	[토스]	인첸률은 안해봤는데 
2016-12-12 16:08:44	외침	[토스]	템 소환으로해보세요
2016-12-12 16:08:50	외침	[토스]	ㅇ .템 
2016-12-12 16:08:51	외침	[다므스]	  .아이템
2016-12-12 16:08:52	외침	[다므스]	아
2016-12-12 16:08:54	외침	[다므스]	템이군아 이건
2016-12-12 16:10:02	외침	[다므스]	정자
2016-12-12 16:10:03	외침	[다므스]	이름으로
2016-12-12 16:10:04	외침	[다므스]	처야되요?
2016-12-12 16:10:10	외침	[토스]	어떤템
2016-12-12 16:10:11	외침	[다므스]	아이템 id 말구여?
2016-12-12 16:10:13	외침	[토스]	하실꺼에여
2016-12-12 16:10:14	외침	[토스]	넹
2016-12-12 16:10:16	외침	[다므스]	용반
2016-12-12 16:11:10	외침	[다므스]	 .템 스냅퍼의마나반지 1 1
2016-12-12 16:11:20	외침	[다므스]	되네
2016-12-12 16:12:47	외침	[다므스]	이건되네요
2016-12-12 18:17:24	외침	[응]	리스해보세여 ㅋ
2016-12-12 18:17:39	외침	[응]	가볼게여
2016-12-12 18:17:51	파티	[응]	파티말
2016-12-12 18:17:52	파티	[응]	보이죠
2016-12-12 18:17:58	파티	[응]	일단 사람이없어 테스트를 못하니까
2016-12-12 18:18:05	파티	[응]	이렇게했어요
2016-12-12 18:18:07	전체	[응]	파티말 보이세여?
2016-12-12 18:18:16	파티	[전사]	이거요??
2016-12-12 18:18:19	외침	[응]	네네
2016-12-12 18:18:23	파티	[전사]	네 보여요 ㅎ
2016-12-12 18:18:33	외침	[응]	죽여볼게요
2016-12-12 18:18:38	외침	[전사]	네 
2016-12-12 18:19:00	전체	[전사]	렙따가 되네요
2016-12-12 18:19:54	외침	[전사]	렙다
2016-12-12 18:19:58	외침	[응]	이건
2016-12-12 18:19:59	외침	[응]	나비켓에서
2016-12-12 18:20:00	외침	[응]	하시면되요'
2016-12-12 18:20:08	외침	[전사]	패널티
2016-12-12 18:20:09	외침	[전사]	없게요?
2016-12-12 18:20:31	외침	[응]	네
2016-12-12 18:20:38	외침	[응]	mapid인가
2016-12-12 18:20:42	외침	[응]	거기에 패널티부분에서 0으로하시면되요
2016-12-12 18:20:43	외침	[전사]	네
2016-12-12 18:21:32	외침	[전사]	죽여보세요 ㅎ
2016-12-12 18:22:38	외침	[전사]	일단
2016-12-12 18:22:39	외침	[전사]	이부분은
2016-12-12 18:22:43	외침	[전사]	된거같네요
2016-12-12 18:22:46	외침	[응]	넹
2016-12-12 18:22:48	외침	[전사]	현재
2016-12-12 18:22:58	외침	[전사]	뽕데스로
2016-12-12 18:23:06	외침	[전사]	변신시켜주시고요
2016-12-12 18:23:08	외침	[전사]	다시
2016-12-12 18:23:15	외침	[전사]	미니공성
2016-12-12 18:23:38	외침	[응]	돈이
2016-12-12 18:23:39	외침	[응]	안나오네여
2016-12-12 18:23:42	외침	[응]	죽으면
2016-12-12 18:23:45	외침	[응]	천원 생성되야하는데
2016-12-12 18:23:48	외침	[응]	바닥에
2016-12-12 18:24:02	외침	[전사]	저
2016-12-12 18:24:15	외침	[응]	저C팀
2016-12-12 18:24:57	외침	[전사]	이거
2016-12-12 18:24:59	외침	[전사]	안부서짐
2016-12-12 18:25:03	외침	[응]	여러번
2016-12-12 18:25:06	외침	[응]	동시에켜서그래요
2016-12-12 18:25:31	외침	[응]	4번켜놧더니
2016-12-12 18:25:33	외침	[응]	스폰이 4번됬네여
2016-12-12 18:25:58	외침	[전사]	정상적으로
2016-12-12 18:26:02	외침	[전사]	종료가
2016-12-12 18:26:04	외침	[전사]	되어야
2016-12-12 18:26:11	외침	[전사]	그다음 진행될때
2016-12-12 18:26:12	외침	[응]	이건 테스트용이라
2016-12-12 18:26:14	외침	[전사]	문제 없이
2016-12-12 18:26:15	외침	[전사]	되나요?
2016-12-12 18:26:16	외침	[응]	GM커멘드에서
2016-12-12 18:26:24	외침	[응]	조건을 안줬어요
2016-12-12 18:26:27	외침	[응]	실행중이라면
2016-12-12 18:26:32	외침	[응]	그냥 메세지만보낸다
2016-12-12 18:26:35	외침	[응]	이런 조건을 줘야하는데
2016-12-12 18:26:39	외침	[응]	스폰을 계속 시켜서그래요 ㅋㅋ
2016-12-12 18:26:46	외침	[전사]	네
2016-12-12 18:26:49	외침	[전사]	그러면
2016-12-12 18:26:56	외침	[전사]	제가
2016-12-12 18:27:01	외침	[전사]	애기했던거
2016-12-12 18:27:02	외침	[전사]	다른건
2016-12-12 18:27:06	외침	[전사]	만지셧나요?
2016-12-12 18:27:15	외침	[응]	일단 새로 소스를 짜야해요
2016-12-12 18:27:22	외침	[응]	팝존에있는거
2016-12-12 18:27:22	외침	[응]	봤는데
2016-12-12 18:27:29	외침	[응]	그냥 모양만되는거같더라구여
2016-12-12 18:27:37	외침	[전사]	여기는
2016-12-12 18:27:39	외침	[전사]	탑이
2016-12-12 18:27:41	외침	[전사]	이쪽에
2016-12-12 18:27:43	외침	[전사]	있네요
2016-12-12 18:28:24	외침	[전사]	안끝나는구나 ㅋㅋ
2016-12-12 18:28:31	외침	[응]	허
2016-12-12 18:28:33	외침	[응]	오류인가
2016-12-12 18:28:35	외침	[전사]	강제
2016-12-12 18:28:35	외침	[응]	되게 꼬이네여
2016-12-12 18:28:37	외침	[전사]	실행되서
2016-12-12 18:28:42	외침	[전사]	그런거같은데
2016-12-12 18:28:47	외침	[응]	네 너무 여러번
2016-12-12 18:28:49	외침	[응]	켰나봐여
2016-12-12 18:28:51	외침	[응]	조건도안주고...
2016-12-12 18:35:42	전체	[전사]	모르고 esc누름
2016-12-12 18:35:44	전체	[전사]	;
2016-12-12 18:36:25	외침	[응]	두번떴네여
2016-12-12 18:36:26	외침	[응]	흑
2016-12-12 18:38:15	외침	[응]	고쳐야겠다
