2017-03-31 03:11:38	접속 캐릭=티사니	계정=sksk1	IP=121.154.162.118
2017-03-31 03:38:48	종료 캐릭=티사니 계정=sksk1 IP=121.154.162.118
2017-03-31 03:39:23	접속 캐릭=메티스	계정=sksk1	IP=121.154.162.118
2017-03-31 03:43:36	종료 캐릭=메티스 계정=sksk1 IP=121.154.162.118
2017-03-31 18:15:34	접속 캐릭=메티스	계정=sksk1	IP=121.154.162.118
2017-03-31 18:19:11	접속 캐릭=메티스	계정=sksk1	IP=121.154.162.118
2017-03-31 18:47:49	접속 캐릭=메티스	계정=sksk1	IP=121.154.162.118
2017-03-31 18:49:24	종료 캐릭=메티스 계정=sksk1 IP=121.154.162.118
2017-03-31 18:49:29	접속 캐릭=메티스	계정=sksk1	IP=121.154.162.118
2017-03-31 19:24:27	접속 캐릭=메티스	계정=sksk1	IP=121.154.162.118
2017-03-31 19:33:08	접속 캐릭=메티스	계정=sksk1	IP=121.154.162.118
2017-03-31 19:33:31	종료 캐릭=메티스 계정=sksk1 IP=121.154.162.118
2017-03-31 19:38:28	접속 캐릭=메티스	계정=sksk1	IP=121.154.162.118
2017-03-31 19:42:16	접속 캐릭=메티스	계정=sksk1	IP=121.154.162.118
2017-03-31 19:42:32	접속 캐릭=왕	계정=sksk2	IP=121.154.162.118
2017-03-31 19:46:23	종료 캐릭=메티스 계정=sksk1 IP=121.154.162.118
2017-03-31 19:48:49	접속 캐릭=몰라	계정=skawkek1	IP=121.154.162.118
2017-03-31 19:55:14	접속 캐릭=왕	계정=sjaqjdnjs	IP=121.154.162.118
2017-03-31 21:59:21	접속 캐릭=하하	계정=gkgk1	IP=121.154.162.118
2017-03-31 22:11:25	접속 캐릭=하하	계정=gkgk1	IP=121.154.162.118
2017-03-31 22:20:37	접속 캐릭=하하	계정=gkgk1	IP=121.154.162.118
2017-03-31 22:31:05	접속 캐릭=하하	계정=gkgk1	IP=121.154.162.118
2017-03-31 22:52:44	접속 캐릭=하하	계정=gkgk1	IP=121.154.162.118
2017-03-31 22:59:22	접속 캐릭=하하	계정=gkgk1	IP=121.154.162.118
2017-03-31 23:12:00	종료 캐릭=하하 계정=gkgk1 IP=121.154.162.118
2017-03-31 23:12:04	접속 캐릭=하하	계정=gkgk1	IP=121.154.162.118
2017-03-31 23:42:24	접속 캐릭=하하	계정=gkgk1	IP=121.154.162.118
