2017-01-06 00:15:59	종료 캐릭=공주 계정=didho IP=39.114.11.56
2017-01-06 00:16:03	접속 캐릭=공주	계정=didho	IP=39.114.11.56
2017-01-06 00:16:58	종료 캐릭=공주 계정=didho IP=39.114.11.56
2017-01-06 00:17:03	접속 캐릭=공주	계정=didho	IP=39.114.11.56
2017-01-06 00:34:25	접속 캐릭=메티스	계정=matis	IP=14.138.119.53
2017-01-06 00:47:00	접속 캐릭=용	계정=dhodi	IP=39.114.11.56
2017-01-06 00:49:37	종료 캐릭=용 계정=dhodi IP=39.114.11.56
2017-01-06 00:50:36	접속 캐릭=용	계정=dhodi	IP=39.114.11.56
2017-01-06 00:51:18	종료 캐릭=용 계정=dhodi IP=39.114.11.56
2017-01-06 00:52:41	접속 캐릭=요정	계정=dhodi	IP=39.114.11.56
2017-01-06 00:53:44	종료 캐릭=요정 계정=dhodi IP=39.114.11.56
2017-01-06 00:53:47	접속 캐릭=용	계정=dhodi	IP=39.114.11.56
2017-01-06 00:54:02	종료 캐릭=용 계정=dhodi IP=39.114.11.56
2017-01-06 00:54:14	접속 캐릭=기사	계정=dhodi	IP=39.114.11.56
2017-01-06 00:54:51	종료 캐릭=기사 계정=dhodi IP=39.114.11.56
2017-01-06 02:05:50	종료 캐릭=메티스 계정=matis IP=14.138.119.53
2017-01-06 02:08:32	접속 캐릭=메티스	계정=matis	IP=14.138.119.53
2017-01-06 02:16:56	종료 캐릭=메티스 계정=matis IP=14.138.119.53
2017-01-06 03:35:51	접속 캐릭=메티스	계정=matis	IP=14.138.119.53
2017-01-06 04:11:26	접속 캐릭=에티스	계정=alal123	IP=116.125.174.121
2017-01-06 04:15:26	접속 캐릭=후광	계정=mys77a	IP=119.245.137.73
2017-01-06 04:18:35	종료 캐릭=후광 계정=mys77a IP=119.245.137.73
2017-01-06 04:18:39	접속 캐릭=후광	계정=mys77a	IP=119.245.137.73
2017-01-06 04:19:21	종료 캐릭=후광 계정=mys77a IP=119.245.137.73
2017-01-06 04:19:40	접속 캐릭=빛광	계정=mys77a	IP=119.245.137.73
2017-01-06 04:19:53	종료 캐릭=에티스 계정=alal123 IP=116.125.174.121
2017-01-06 04:20:40	접속 캐릭=에티스	계정=alal123	IP=116.125.174.121
2017-01-06 04:20:51	종료 캐릭=에티스 계정=alal123 IP=116.125.174.121
2017-01-06 04:21:54	접속 캐릭=팅기네	계정=alal123	IP=116.125.174.121
2017-01-06 04:37:44	접속 캐릭=메티스	계정=matis	IP=14.138.119.53
2017-01-06 04:39:48	접속 캐릭=메티스	계정=matis	IP=14.138.119.53
2017-01-06 04:41:05	접속 캐릭=빛광	계정=mys77a	IP=119.245.137.73
2017-01-06 04:41:54	접속 캐릭=공주	계정=didho	IP=39.114.11.56
2017-01-06 04:44:27	종료 캐릭=빛광 계정=mys77a IP=119.245.137.73
2017-01-06 04:44:30	접속 캐릭=후광	계정=mys77a	IP=119.245.137.73
2017-01-06 04:45:03	종료 캐릭=후광 계정=mys77a IP=119.245.137.73
2017-01-06 04:45:05	접속 캐릭=빛광	계정=mys77a	IP=119.245.137.73
2017-01-06 04:45:23	종료 캐릭=메티스 계정=matis IP=14.138.119.53
2017-01-06 04:47:00	접속 캐릭=메티스	계정=matis	IP=14.138.119.53
2017-01-06 04:47:01	종료 캐릭=메티스 계정=matis IP=14.138.119.53
2017-01-06 04:47:21	접속 캐릭=메티스	계정=matis	IP=14.138.119.53
2017-01-06 04:52:06	종료 캐릭=빛광 계정=mys77a IP=119.245.137.73
2017-01-06 04:54:15	접속 캐릭=메티스	계정=matis	IP=14.138.119.53
2017-01-06 04:55:26	접속 캐릭=빛광	계정=mys77a	IP=119.245.137.73
2017-01-06 04:57:49	접속 캐릭=공주	계정=didho	IP=39.114.11.56
2017-01-06 05:10:19	종료 캐릭=공주 계정=didho IP=39.114.11.56
2017-01-06 05:10:24	접속 캐릭=공주	계정=didho	IP=39.114.11.56
2017-01-06 05:17:55	종료 캐릭=메티스 계정=matis IP=14.138.119.53
2017-01-06 05:18:01	종료 캐릭=빛광 계정=mys77a IP=119.245.137.73
2017-01-06 05:38:08	접속 캐릭=메티스	계정=matis	IP=14.138.119.53
2017-01-06 05:38:30	종료 캐릭=메티스 계정=matis IP=14.138.119.53
2017-01-06 06:08:14	종료 캐릭=공주 계정=didho IP=39.114.11.56
2017-01-06 06:09:04	접속 캐릭=공주	계정=didho	IP=39.114.11.56
2017-01-06 06:33:13	종료 캐릭=공주 계정=didho IP=39.114.11.56
2017-01-06 06:33:18	접속 캐릭=공주	계정=didho	IP=39.114.11.56
2017-01-06 11:10:14	접속 캐릭=구경해보장	계정=a0514	IP=59.23.6.26
2017-01-06 11:14:36	종료 캐릭=구경해보장 계정=a0514 IP=59.23.6.26
2017-01-06 11:42:02	접속 캐릭=키득키득	계정=parka1004	IP=220.84.189.177
2017-01-06 11:44:46	종료 캐릭=키득키득 계정=parka1004 IP=220.84.189.177
2017-01-06 11:47:43	종료 캐릭=공주 계정=didho IP=39.114.11.56
2017-01-06 13:56:09	접속 캐릭=메티스	계정=matis	IP=14.138.119.53
2017-01-06 13:57:26	종료 캐릭=메티스 계정=matis IP=14.138.119.53
2017-01-06 13:58:57	접속 캐릭=메티스	계정=matis	IP=14.138.119.53
2017-01-06 14:01:23	접속 캐릭=메티스	계정=matis	IP=14.138.119.53
2017-01-06 14:01:55	종료 캐릭=메티스 계정=matis IP=14.138.119.53
2017-01-06 14:02:50	접속 캐릭=메티스	계정=matis	IP=14.138.119.53
2017-01-06 14:07:41	접속 캐릭=메티스	계정=matis	IP=14.138.119.53
2017-01-06 14:14:45	접속 캐릭=메티스	계정=matis	IP=14.138.119.53
2017-01-06 14:22:57	접속 캐릭=메티스	계정=matis	IP=14.138.119.53
2017-01-06 14:28:25	접속 캐릭=메티스	계정=matis	IP=14.138.119.53
2017-01-06 14:28:50	종료 캐릭=메티스 계정=matis IP=14.138.119.53
2017-01-06 14:33:45	접속 캐릭=메티스	계정=matis	IP=14.138.119.53
2017-01-06 14:38:23	접속 캐릭=메티스	계정=matis	IP=14.138.119.53
2017-01-06 20:27:41	접속 캐릭=메티스	계정=matis	IP=14.138.119.53
2017-01-06 20:29:48	종료 캐릭=메티스 계정=matis IP=14.138.119.53
2017-01-06 20:29:53	접속 캐릭=메티스	계정=matis	IP=14.138.119.53
2017-01-06 20:30:13	종료 캐릭=메티스 계정=matis IP=14.138.119.53
2017-01-06 20:30:18	접속 캐릭=메티스	계정=matis	IP=14.138.119.53
2017-01-06 20:30:33	종료 캐릭=메티스 계정=matis IP=14.138.119.53
2017-01-06 20:30:38	접속 캐릭=메티스	계정=matis	IP=14.138.119.53
2017-01-06 20:41:53	접속 캐릭=다다다	계정=qw123	IP=118.47.170.243
2017-01-06 20:42:09	종료 캐릭=다다다 계정=qw123 IP=118.47.170.243
2017-01-06 20:42:43	접속 캐릭=다다다	계정=qw123	IP=118.47.170.243
2017-01-06 20:42:54	접속 캐릭=메티스	계정=matis	IP=14.138.119.53
2017-01-06 20:49:03	종료 캐릭=다다다 계정=qw123 IP=118.47.170.243
2017-01-06 21:17:46	접속 캐릭=메티스	계정=matis	IP=14.138.119.53
2017-01-06 21:22:46	접속 캐릭=메티스	계정=matis	IP=14.138.119.53
2017-01-06 22:43:08	접속 캐릭=메티스	계정=matis	IP=14.138.119.53
2017-01-06 22:47:51	종료 캐릭=메티스 계정=matis IP=14.138.119.53
2017-01-06 22:47:55	접속 캐릭=메티스	계정=matis	IP=14.138.119.53
2017-01-06 23:06:19	접속 캐릭=메티스	계정=matis	IP=14.138.119.53
2017-01-06 23:06:42	종료 캐릭=메티스 계정=matis IP=14.138.119.53
2017-01-06 23:06:46	접속 캐릭=메티스	계정=matis	IP=14.138.119.53
2017-01-06 23:06:58	종료 캐릭=메티스 계정=matis IP=14.138.119.53
2017-01-06 23:11:07	접속 캐릭=메티스	계정=matis	IP=14.138.119.53
2017-01-06 23:11:39	종료 캐릭=메티스 계정=matis IP=14.138.119.53
2017-01-06 23:11:43	접속 캐릭=메티스	계정=matis	IP=14.138.119.53
2017-01-06 23:18:55	종료 캐릭=메티스 계정=matis IP=14.138.119.53
