2017-01-06 00:02:22	줍기	didho:[공주]	[298534327]마법서 (크리에이트 좀비)(1)
2017-01-06 00:02:24	줍기	didho:[공주]	[298534328]흑마법 가루(1)
2017-01-06 00:02:25	줍기	didho:[공주]	[298534329]라스타바드 보급품 자루
2017-01-06 00:29:37	줍기	didho:[공주]	[298534612]악마의 피(2)
2017-01-06 00:31:01	줍기	didho:[공주]	[298534637]전사의 인장(기간틱)
2017-01-06 00:31:34	줍기	didho:[공주]	[298534671]전사의 인장(기간틱)
2017-01-06 00:31:58	줍기	didho:[공주]	[298534666]영혼석(불멸의 리치)
2017-01-06 00:32:11	줍기	didho:[공주]	[298534683]악마의 피(1)
2017-01-06 00:34:12	줍기	didho:[공주]	[298534726]악마의 피(1)
2017-01-06 00:36:37	줍기	didho:[공주]	[298534770]오만의 탑 \aG[8층]\aA 이동 주문서(1)
2017-01-06 00:36:44	줍기	didho:[공주]	[298534777]영혼석(어둠의 나이트발드)
2017-01-06 00:37:08	줍기	didho:[공주]	[298534762]기술서 (리덕션 아머)(1)
2017-01-06 00:38:10	줍기	didho:[공주]	[298534779]오만의 탑 \aG[8층]\aA 이동 주문서(1)
2017-01-06 00:38:11	줍기	didho:[공주]	[298534778]기술서 (쇼크 스턴)(1)
2017-01-06 00:40:12	줍기	didho:[공주]	[298534798]용기의 물약(1)
2017-01-06 00:42:33	줍기	didho:[공주]	[298534847]오만의 탑 \aG[8층]\aA 이동 주문서(1)
2017-01-06 00:52:01	삭제	didho:[공주]	[298534671]전사의 인장(기간틱)
2017-01-06 00:52:01	삭제	didho:[공주]	[298534637]전사의 인장(기간틱)
2017-01-06 01:04:09	줍기	didho:[공주]	[298534969]쿠거의 영혼
2017-01-06 01:06:11	줍기	didho:[공주]	[298535003]기운을 잃은 전사의 인장(타이탄 블릿)(1)
2017-01-06 01:06:15	줍기	didho:[공주]	[298535004]변신 막대
2017-01-06 01:06:15	줍기	didho:[공주]	[298535014]오만의 탑 \aG[5층]\aA 이동 주문서(1)
2017-01-06 01:07:03	줍기	didho:[공주]	[298535022]소환 조종 반지
2017-01-06 01:07:41	줍기	didho:[공주]	[298535032]마력의 지팡이
2017-01-06 01:09:25	줍기	didho:[공주]	[298535064]오만의 탑 \aG[5층]\aA 이동 주문서(1)
2017-01-06 01:16:56	줍기	didho:[공주]	[298535166]어둠의 이도류
2017-01-06 01:18:17	버리기	didho:[공주]	[298535166]어둠의 이도류
2017-01-06 01:23:09	줍기	didho:[공주]	[298535233]흑정령의 수정 (더블 브레이크)(1)
2017-01-06 01:42:45	줍기	didho:[공주]	[298531919]검은 혈흔(1)
2017-01-06 02:04:34	줍기	didho:[공주]	[298535755]마법 방어 투구
2017-01-06 02:13:35	줍기	didho:[공주]	[298535805]고대의 갑옷 주술 두루마리(2)
2017-01-06 02:20:03	줍기	didho:[공주]	[298535926]고대의 갑옷 주술 두루마리(1)
2017-01-06 02:20:28	줍기	didho:[공주]	[298535934]마프르의 유산(1)
2017-01-06 02:20:49	줍기	didho:[공주]	[298535947]엘븐 와퍼(1)
2017-01-06 02:23:08	줍기	didho:[공주]	[298535978]영혼을 잃은 키링크
2017-01-06 02:30:02	줍기	didho:[공주]	[298536033]마프르의 유산(1)
2017-01-06 02:30:02	줍기	didho:[공주]	[298536032]용기의 물약(1)
2017-01-06 02:30:26	줍기	didho:[공주]	[298536044]용기의 물약(1)
2017-01-06 02:31:33	줍기	didho:[공주]	[298536074]마프르의 유산(1)
2017-01-06 02:48:06	줍기	didho:[공주]	[298536132]용기의 물약(1)
2017-01-06 02:48:09	줍기	didho:[공주]	[298536134]고대의 갑옷 주술 두루마리(2)
2017-01-06 02:51:58	줍기	didho:[공주]	[298536088]마프르의 유산(1)
2017-01-06 02:53:26	줍기	didho:[공주]	[298536050]고대의 갑옷 주술 두루마리(2)
2017-01-06 02:54:19	줍기	didho:[공주]	[298535939]고대의 갑옷 주술 두루마리(1)
2017-01-06 02:56:06	줍기	didho:[공주]	[298536243]고대의 갑옷 주술 두루마리(1)
2017-01-06 03:12:16	줍기	didho:[공주]	[298536421]흑마법 가루(1)
2017-01-06 03:12:17	줍기	didho:[공주]	[298536422]라스타바드 보급품 자루
2017-01-06 03:12:18	줍기	didho:[공주]	[298536420]마법서 (크리에이트 좀비)(1)
2017-01-06 03:19:07	줍기	didho:[공주]	[298536448]검은 혈흔(1)
2017-01-06 03:19:13	줍기	didho:[공주]	[298536447]검은 혈흔(1)
2017-01-06 03:19:28	줍기	didho:[공주]	[298536449]마법서 (홀리 워크)(1)
2017-01-06 03:30:56	줍기	didho:[공주]	[298536682]일본도
2017-01-06 03:30:57	줍기	didho:[공주]	[298536685]일본도
2017-01-06 03:31:04	줍기	didho:[공주]	[298536687]마법서 (풀 힐)(1)
2017-01-06 03:31:51	줍기	didho:[공주]	[298536699]일본도
2017-01-06 03:31:53	줍기	didho:[공주]	[298536698]산성 유액(1)
2017-01-06 03:32:53	줍기	didho:[공주]	[298536725]정령의 수정 (네이쳐스 블레싱)(1)
2017-01-06 03:33:07	줍기	didho:[공주]	[298536734]파푸리온의 혈흔(1)
2017-01-06 03:33:08	줍기	didho:[공주]	[298536732]정령의 수정 (워터 라이프)(1)
2017-01-06 03:33:09	줍기	didho:[공주]	[298536729]정령의 수정 (어스 가디언)(1)
2017-01-06 03:43:14	버리기	matis:[메티스]	[298536892]투명 망토
2017-01-06 03:43:15	버리기	didho:[공주]	[298536902]풍룡 비늘(2)
2017-01-06 04:06:24	삭제	didho:[공주]	[298536687]마법서 (풀 힐)(0)
2017-01-06 04:06:32	버리기	didho:[공주]	[298535947]엘븐 와퍼(1)
2017-01-06 04:06:34	버리기	didho:[공주]	[298536032]용기의 물약(3)
2017-01-06 04:07:48	줍기	didho:[공주]	[298532656]기운을 잃은 봉인된 오만의 탑 1층 이동 부적(1)
2017-01-06 04:21:01	줍기	didho:[공주]	[298537258]마법서 (홀리 워크)(1)
2017-01-06 05:04:32	삭제	didho:[공주]	[298601744]+115혹한의 창
2017-01-06 05:11:04	버리기	didho:[공주]	[298535978]영혼을 잃은 키링크
2017-01-06 05:11:36	줍기	mys77a:[빛광]	[298535978]영혼을 잃은 키링크
2017-01-06 05:22:25	줍기	didho:[공주]	[298601844]오만의 탑 \aG[9층]\aA 이동 주문서(1)
2017-01-06 05:23:47	줍기	didho:[공주]	[298601899]오만의 탑 \aG[9층]\aA 이동 주문서(1)
2017-01-06 05:27:18	줍기	didho:[공주]	[298602017]파괴의 이도류
2017-01-06 05:28:06	줍기	didho:[공주]	[298602053]오만의 탑 \aG[9층]\aA 이동 주문서(1)
2017-01-06 05:58:47	줍기	didho:[공주]	[298602749]순간이동 주문서(1)
2017-01-06 05:59:37	줍기	didho:[공주]	[298602737]순간이동 주문서(1)
2017-01-06 06:02:21	줍기	didho:[공주]	[298602910]번개 소환 막대
2017-01-06 06:02:24	버리기	didho:[공주]	[298534858]해독제(39)
2017-01-06 06:02:26	줍기	didho:[공주]	[298602866]해독제(1)
2017-01-06 06:02:28	줍기	didho:[공주]	[298534858]해독제(39)
2017-01-06 06:02:29	줍기	didho:[공주]	[298602914]마프르의 유산(1)
2017-01-06 06:02:30	줍기	didho:[공주]	[298602913]순간이동 주문서(1)
2017-01-06 06:05:47	줍기	didho:[공주]	[298603277]순간이동 주문서(1)
2017-01-06 06:07:27	줍기	didho:[공주]	[298603318]영혼석 파편(2)
2017-01-06 06:11:01	줍기	didho:[공주]	[298603326]라스타바드 보급품 자루
2017-01-06 06:12:20	줍기	didho:[공주]	[298603354]오만의 탑 \aG[2층]\aA 이동 주문서(1)
2017-01-06 06:14:41	줍기	didho:[공주]	[298603477]오만의 탑 \aG[4층]\aA 이동 주문서(1)
2017-01-06 06:14:43	줍기	didho:[공주]	[298603469]오만의 탑 \aG[3층]\aA 이동 주문서(1)
2017-01-06 06:18:47	줍기	didho:[공주]	[298603637]오만의 탑 \aG[7층]\aA 이동 주문서(1)
2017-01-06 06:20:00	줍기	didho:[공주]	[298603692]기운을 잃은 블러드서커(1)
2017-01-06 06:20:22	줍기	didho:[공주]	[298603708]오만의 탑 \aG[6층]\aA 이동 주문서(1)
2017-01-06 06:22:06	줍기	didho:[공주]	[298603743]마물의 기운(5)
2017-01-06 06:23:15	줍기	didho:[공주]	[298603781]마물의 기운(4)
2017-01-06 06:25:36	줍기	didho:[공주]	[298603767]마물의 기운(1)
2017-01-06 06:27:00	줍기	didho:[공주]	[298603806]마물의 기운(1)
2017-01-06 06:27:14	줍기	didho:[공주]	[298603812]악마의 피(1)
2017-01-06 06:27:50	줍기	didho:[공주]	[298603795]영혼석 파편(11)
2017-01-06 06:27:52	줍기	didho:[공주]	[298603793]블랙 미스릴 원석(2)
2017-01-06 06:27:52	줍기	didho:[공주]	[298603794]검은 혈흔(8)
2017-01-06 06:27:53	줍기	didho:[공주]	[298603796]혼돈의 머리카락(1)
2017-01-06 06:28:52	줍기	didho:[공주]	[298603791]블랙 미스릴 원석(3)
2017-01-06 06:29:25	버리기	didho:[공주]	[298602017]파괴의 이도류
2017-01-06 06:38:40	줍기	didho:[공주]	[298603896]검은 혈흔(8)
2017-01-06 06:38:41	줍기	didho:[공주]	[298603897]혈석 파편(38)
2017-01-06 06:38:41	줍기	didho:[공주]	[298603895]블랙 미스릴 원석(5)
2017-01-06 06:46:10	줍기	didho:[공주]	[298604165]원정대원의 유품(1)
2017-01-06 06:46:59	줍기	didho:[공주]	[298604188]원정대원의 유품(1)
2017-01-06 06:47:02	줍기	didho:[공주]	[298604185]브롭의 위액(1)
2017-01-06 06:47:12	줍기	didho:[공주]	[298604195]원정대원의 유품(1)
2017-01-06 06:47:22	버리기	didho:[공주]	[298604165]원정대원의 유품(3)
2017-01-06 06:52:40	줍기	didho:[공주]	[298604319]대형 도끼
2017-01-06 06:52:40	줍기	didho:[공주]	[298604325]띠 갑옷
2017-01-06 07:01:09	줍기	didho:[공주]	[298604489]숫돌(1)
2017-01-06 11:11:02	삭제	a0514:[구경해보장]	[298605111]아크프리패스 상자(0)
2017-01-06 20:30:09	줍기	matis:[메티스]	[298637510]오만의 탑 \aG[9층]\aA 이동 주문서(1)
2017-01-06 20:45:38	버리기	qw123:[다다다]	[298670067]군터의 인장(1)
2017-01-06 20:45:39	줍기	qw123:[다다다]	[298670067]군터의 인장(1)
